"Dstat 0.7.2 CSV output"
"Author:","Dag Wieers <dag@wieers.com>",,,,"URL:","http://dag.wieers.com/home-made/dstat/"
"Host:","node2.tf-assign2.uwmadison744-f19-pg0.wisc.cloudlab.us",,,,"User:","lyang296"
"Cmdline:","dstat --cpu --mem --net --output node2.csv",,,,"Date:","09 Oct 2019 11:26:09 CDT"

"total cpu usage",,,,,,"memory usage",,,,"net/total",
"usr","sys","idl","wai","hiq","siq","used","buff","cach","free","recv","send"
0.295,0.076,99.618,0.006,0.0,0.005,321318912.0,172417024.0,1580945408.0,31461007360.0,0.0,0.0
18.109,10.262,71.429,0.0,0.0,0.201,391770112.0,172417024.0,1580949504.0,31390552064.0,20432.0,452.0
15.462,4.618,79.920,0.0,0.0,0.0,440020992.0,172417024.0,1580949504.0,31342301184.0,20064.0,332.0
10.609,9.481,79.910,0.0,0.0,0.0,639918080.0,172417024.0,1549418496.0,31173935104.0,19812.0,11670.0
7.0,10.0,82.800,0.0,0.0,0.200,716484608.0,172417024.0,1549418496.0,31097368576.0,24949.0,16438.0
0.0,0.0,99.800,0.0,0.0,0.200,716484608.0,172417024.0,1549418496.0,31097368576.0,17216.0,374.0
0.0,0.0,99.400,0.600,0.0,0.0,717176832.0,172425216.0,1549418496.0,31096668160.0,17660.0,374.0
0.0,0.0,100.0,0.0,0.0,0.0,716984320.0,172425216.0,1549418496.0,31096860672.0,18684.0,332.0
0.0,0.0,100.0,0.0,0.0,0.0,716984320.0,172425216.0,1549418496.0,31096860672.0,19930.0,332.0
0.0,0.0,100.0,0.0,0.0,0.0,717144064.0,172425216.0,1549418496.0,31096700928.0,20602.0,332.0
0.0,0.0,100.0,0.0,0.0,0.0,716984320.0,172425216.0,1549418496.0,31096860672.0,24296.0,332.0
0.0,0.0,99.799,0.201,0.0,0.0,716980224.0,172429312.0,1549418496.0,31096860672.0,23170.0,332.0
0.0,0.0,100.0,0.0,0.0,0.0,716853248.0,172429312.0,1549418496.0,31096987648.0,21980.0,332.0
0.0,0.0,100.0,0.0,0.0,0.0,716914688.0,172429312.0,1549418496.0,31096926208.0,20878.0,332.0
0.0,0.0,100.0,0.0,0.0,0.0,716783616.0,172429312.0,1549418496.0,31097057280.0,20050.0,332.0
0.0,0.0,100.0,0.0,0.0,0.0,716783616.0,172429312.0,1549418496.0,31097057280.0,18072.0,332.0
0.200,0.0,99.800,0.0,0.0,0.0,716718080.0,172429312.0,1549418496.0,31097122816.0,20300.0,332.0
0.0,0.0,99.799,0.201,0.0,0.0,716554240.0,172429312.0,1549418496.0,31097286656.0,18172.0,332.0
0.0,0.0,100.0,0.0,0.0,0.0,716488704.0,172429312.0,1549418496.0,31097352192.0,18636.0,332.0
0.0,0.0,100.0,0.0,0.0,0.0,716423168.0,172429312.0,1549418496.0,31097417728.0,18416.0,332.0
0.0,0.0,100.0,0.0,0.0,0.0,716357632.0,172429312.0,1549418496.0,31097483264.0,17586.0,332.0
0.0,0.0,100.0,0.0,0.0,0.0,716230656.0,172429312.0,1549418496.0,31097610240.0,19132.0,332.0
0.0,0.0,99.600,0.400,0.0,0.0,716288000.0,172433408.0,1549418496.0,31097548800.0,17920.0,332.0
0.0,0.0,100.0,0.0,0.0,0.0,716156928.0,172433408.0,1549418496.0,31097679872.0,17606.0,332.0
0.0,0.0,100.0,0.0,0.0,0.0,715866112.0,172433408.0,1549418496.0,31097970688.0,17242.0,332.0
0.0,0.200,99.800,0.0,0.0,0.0,716374016.0,172433408.0,1549418496.0,31097462784.0,18170.0,332.0
0.0,0.0,100.0,0.0,0.0,0.0,716341248.0,172433408.0,1549418496.0,31097495552.0,15446.0,332.0
0.0,0.0,100.0,0.0,0.0,0.0,716210176.0,172433408.0,1549418496.0,31097626624.0,14986.0,374.0
0.0,0.0,99.799,0.201,0.0,0.0,716013568.0,172437504.0,1549418496.0,31097819136.0,14850.0,332.0
0.0,0.0,100.0,0.0,0.0,0.0,716075008.0,172437504.0,1549418496.0,31097757696.0,13408.0,332.0
0.0,0.0,100.0,0.0,0.0,0.0,715976704.0,172437504.0,1549418496.0,31097856000.0,13772.0,332.0
0.0,0.0,100.0,0.0,0.0,0.0,715943936.0,172437504.0,1549418496.0,31097888768.0,13682.0,332.0
0.0,0.0,100.0,0.0,0.0,0.0,715943936.0,172437504.0,1549418496.0,31097888768.0,13462.0,332.0
0.0,0.0,99.799,0.201,0.0,0.0,715911168.0,172437504.0,1549418496.0,31097921536.0,13910.0,332.0
2.004,0.401,97.595,0.0,0.0,0.0,720887808.0,172437504.0,1549520896.0,31092842496.0,17285.0,12522.0
22.998,9.035,67.762,0.0,0.0,0.205,774524928.0,172437504.0,1550209024.0,31038517248.0,1645925.0,1654109.0
42.558,6.289,50.734,0.0,0.0,0.419,778190848.0,172437504.0,1551237120.0,31033823232.0,3894755.0,3926685.0
45.902,5.533,48.156,0.0,0.0,0.410,778952704.0,172437504.0,1552228352.0,31032070144.0,3594377.0,3623944.0
45.263,5.684,48.842,0.0,0.0,0.211,781447168.0,172437504.0,1553264640.0,31028539392.0,3862983.0,3903389.0
46.154,4.366,48.233,0.832,0.0,0.416,782848000.0,172445696.0,1554210816.0,31026184192.0,3359177.0,3385834.0
44.0,4.421,50.947,0.0,0.0,0.632,784130048.0,172445696.0,1555251200.0,31023861760.0,3824772.0,3860692.0
44.820,4.440,50.529,0.0,0.0,0.211,784367616.0,172445696.0,1556336640.0,31022538752.0,3989386.0,4001740.0
46.091,5.350,47.942,0.0,0.0,0.617,784687104.0,172445696.0,1557323776.0,31021232128.0,3560900.0,3591031.0
50.529,3.383,45.455,0.0,0.0,0.634,784785408.0,172445696.0,1558261760.0,31020195840.0,3329254.0,3355555.0
46.667,4.167,47.917,1.042,0.0,0.208,785551360.0,172453888.0,1559298048.0,31018385408.0,3692383.0,3731731.0
45.726,4.701,49.145,0.0,0.0,0.427,785289216.0,172453888.0,1560363008.0,31017582592.0,3826096.0,3857974.0
48.842,4.421,46.526,0.0,0.0,0.211,785711104.0,172453888.0,1561341952.0,31016181760.0,3463475.0,3490107.0
29.243,8.589,61.963,0.0,0.0,0.204,786587648.0,172453888.0,1562071040.0,31014576128.0,2633808.0,2658872.0
45.228,3.320,50.830,0.0,0.0,0.622,787271680.0,172453888.0,1563156480.0,31012806656.0,3861175.0,3924838.0
49.478,4.593,44.885,0.626,0.0,0.418,787378176.0,172462080.0,1564139520.0,31011708928.0,3495439.0,3489036.0
43.354,5.521,51.125,0.0,0.0,0.0,787697664.0,172462080.0,1565331456.0,31010197504.0,4355220.0,4404641.0
45.243,4.863,49.471,0.0,0.0,0.423,787828736.0,172462080.0,1566396416.0,31009001472.0,3822826.0,3890120.0
46.804,4.536,48.041,0.0,0.0,0.619,788045824.0,172462080.0,1567485952.0,31007694848.0,3890003.0,3926367.0
45.591,5.161,48.817,0.0,0.0,0.430,788443136.0,172462080.0,1568571392.0,31006212096.0,3856145.0,3868278.0
46.154,4.487,47.863,1.282,0.0,0.214,788738048.0,172470272.0,1569591296.0,31004889088.0,3625588.0,3657059.0
42.050,4.812,52.510,0.0,0.0,0.628,788914176.0,172470272.0,1570799616.0,31003504640.0,4353227.0,4433692.0
41.453,4.701,53.632,0.0,0.0,0.214,788783104.0,172470272.0,1571934208.0,31002501120.0,4086876.0,4125648.0
47.764,6.301,45.528,0.0,0.0,0.407,789295104.0,172470272.0,1572917248.0,31001006080.0,3494999.0,3492747.0
26.819,9.563,63.410,0.0,0.0,0.208,792674304.0,172470272.0,1573572608.0,30996971520.0,2333151.0,2357673.0
43.396,4.822,49.895,1.258,0.0,0.629,793808896.0,172474368.0,1574825984.0,30994579456.0,4454274.0,4486786.0
43.908,5.042,50.630,0.0,0.0,0.420,793640960.0,172474368.0,1575993344.0,30993580032.0,4155888.0,4184771.0
43.983,7.054,47.925,0.0,0.0,1.037,794263552.0,172474368.0,1576960000.0,30991990784.0,3361631.0,3423022.0
47.521,4.752,47.107,0.0,0.0,0.620,794759168.0,172474368.0,1577992192.0,30990462976.0,3595120.0,3618651.0
47.934,4.132,47.934,0.0,0.0,0.0,794615808.0,172474368.0,1579040768.0,30989557760.0,3690588.0,3684097.0
44.421,4.506,50.0,0.429,0.0,0.644,795426816.0,172482560.0,1580085248.0,30987694080.0,3657315.0,3722928.0
50.731,3.967,45.094,0.0,0.0,0.209,795570176.0,172482560.0,1581088768.0,30986547200.0,3425821.0,3448648.0
46.025,3.975,49.372,0.0,0.0,0.628,795320320.0,172482560.0,1582170112.0,30985715712.0,3791851.0,3795013.0
47.107,4.959,47.727,0.0,0.0,0.207,796151808.0,172482560.0,1583185920.0,30983868416.0,3495051.0,3549178.0
50.106,5.285,44.186,0.0,0.0,0.423,796278784.0,172482560.0,1584250880.0,30982676480.0,3691139.0,3684486.0
46.830,5.521,46.421,0.613,0.0,0.613,796241920.0,172490752.0,1585299456.0,30981656576.0,3626385.0,3659386.0
28.099,8.884,62.810,0.0,0.0,0.207,797700096.0,172490752.0,1585938432.0,30979559424.0,2233462.0,2277121.0
48.225,4.175,47.390,0.0,0.0,0.209,797929472.0,172490752.0,1587097600.0,30978170880.0,4021294.0,4026161.0
46.998,4.762,48.033,0.0,0.0,0.207,797655040.0,172490752.0,1588121600.0,30977421312.0,3560873.0,3590537.0
49.251,3.640,47.109,0.0,0.0,0.0,797954048.0,172490752.0,1589145600.0,30976098304.0,3463247.0,3530010.0
46.025,4.603,47.908,1.046,0.0,0.418,798154752.0,172494848.0,1590280192.0,30974758912.0,3989260.0,3992401.0
46.347,4.802,48.643,0.0,0.0,0.209,798068736.0,172494848.0,1591369728.0,30973755392.0,3724283.0,3765935.0
47.182,4.384,47.808,0.0,0.0,0.626,798371840.0,172494848.0,1592451072.0,30972370944.0,3691271.0,3757004.0
46.555,5.637,47.390,0.0,0.0,0.418,798404608.0,172494848.0,1593503744.0,30971285504.0,3591935.0,3623296.0
48.542,4.583,46.667,0.0,0.0,0.208,798552064.0,172494848.0,1594519552.0,30970122240.0,3459363.0,3497387.0
42.227,5.462,51.261,0.840,0.0,0.210,798846976.0,172503040.0,1595760640.0,30968578048.0,4321176.0,4360776.0
46.667,5.208,48.125,0.0,0.0,0.0,798609408.0,172503040.0,1596747776.0,30967828480.0,3392059.0,3421322.0
47.934,4.545,46.901,0.0,0.0,0.620,799100928.0,172503040.0,1597767680.0,30966317056.0,3428389.0,3463722.0
28.016,9.611,62.168,0.0,0.0,0.204,799281152.0,172503040.0,1598414848.0,30965489664.0,2234766.0,2216253.0
46.875,5.0,47.917,0.0,0.0,0.208,799129600.0,172503040.0,1599524864.0,30964531200.0,3823540.0,3850696.0
45.946,4.782,48.857,0.208,0.0,0.208,799293440.0,172511232.0,1600720896.0,30963163136.0,4121584.0,4159808.0
48.333,4.375,46.875,0.0,0.0,0.417,799604736.0,172511232.0,1601716224.0,30961856512.0,3393455.0,3415893.0
44.124,4.536,50.928,0.0,0.0,0.412,799981568.0,172511232.0,1602899968.0,30960295936.0,4087533.0,4118392.0
47.599,3.967,48.225,0.0,0.0,0.209,799764480.0,172511232.0,1603915776.0,30959497216.0,3493165.0,3524550.0
41.151,4.904,53.305,0.0,0.0,0.640,799879168.0,172511232.0,1605001216.0,30958297088.0,3725036.0,3781769.0
29.106,5.613,64.657,0.416,0.0,0.208,320524288.0,172519424.0,1605517312.0,31437127680.0,1804174.0,1820307.0
0.0,0.0,100.0,0.0,0.0,0.0,320253952.0,172519424.0,1605517312.0,31437398016.0,13502.0,332.0
0.0,0.0,100.0,0.0,0.0,0.0,320380928.0,172519424.0,1605517312.0,31437271040.0,13644.0,332.0
0.0,0.0,100.0,0.0,0.0,0.0,320438272.0,172519424.0,1605517312.0,31437213696.0,13608.0,332.0
0.0,0.0,100.0,0.0,0.0,0.0,320094208.0,172519424.0,1605517312.0,31437557760.0,13578.0,332.0
0.0,0.0,99.399,0.601,0.0,0.0,319926272.0,172523520.0,1605517312.0,31437721600.0,14112.0,374.0
0.0,0.0,100.0,0.0,0.0,0.0,319926272.0,172523520.0,1605517312.0,31437721600.0,12990.0,332.0
0.0,0.0,100.0,0.0,0.0,0.0,320118784.0,172523520.0,1605517312.0,31437529088.0,13246.0,332.0
0.0,0.0,100.0,0.0,0.0,0.0,319934464.0,172523520.0,1605517312.0,31437713408.0,13280.0,332.0
0.0,0.0,100.0,0.0,0.0,0.0,319832064.0,172523520.0,1605517312.0,31437815808.0,13914.0,332.0
0.0,0.0,99.800,0.200,0.0,0.0,319827968.0,172527616.0,1605517312.0,31437815808.0,12574.0,332.0
0.200,0.0,99.800,0.0,0.0,0.0,319795200.0,172527616.0,1605517312.0,31437848576.0,13794.0,332.0
0.0,0.0,100.0,0.0,0.0,0.0,319922176.0,172527616.0,1605517312.0,31437721600.0,13156.0,332.0
0.0,0.0,100.0,0.0,0.0,0.0,319508480.0,172527616.0,1605517312.0,31438135296.0,15690.0,332.0
0.0,0.0,100.0,0.0,0.0,0.0,319668224.0,172527616.0,1605517312.0,31437975552.0,14764.0,332.0
0.0,0.0,100.0,0.0,0.0,0.0,319668224.0,172527616.0,1605517312.0,31437975552.0,14312.0,332.0
0.0,0.0,99.800,0.200,0.0,0.0,319660032.0,172535808.0,1605517312.0,31437975552.0,17134.0,332.0
0.0,0.0,100.0,0.0,0.0,0.0,319660032.0,172535808.0,1605517312.0,31437975552.0,15594.0,332.0
0.0,0.0,100.0,0.0,0.0,0.0,319660032.0,172535808.0,1605517312.0,31437975552.0,14980.0,332.0
0.0,0.0,100.0,0.0,0.0,0.0,319660032.0,172535808.0,1605517312.0,31437975552.0,14934.0,332.0
0.0,0.0,100.0,0.0,0.0,0.0,319533056.0,172535808.0,1605517312.0,31438102528.0,14074.0,332.0
0.0,0.0,99.800,0.200,0.0,0.0,319655936.0,172539904.0,1605517312.0,31437975552.0,13106.0,332.0
0.0,0.0,100.0,0.0,0.0,0.0,319655936.0,172539904.0,1605517312.0,31437975552.0,15198.0,332.0
0.0,0.0,100.0,0.0,0.0,0.0,319655936.0,172539904.0,1605517312.0,31437975552.0,15200.0,374.0
0.0,0.0,100.0,0.0,0.0,0.0,319750144.0,172539904.0,1605517312.0,31437881344.0,15462.0,332.0
0.0,0.0,100.0,0.0,0.0,0.0,319623168.0,172539904.0,1605517312.0,31438008320.0,15628.0,332.0
0.0,0.0,100.0,0.0,0.0,0.0,319623168.0,172539904.0,1605517312.0,31438008320.0,14728.0,332.0
0.0,0.0,99.800,0.200,0.0,0.0,319651840.0,172544000.0,1605517312.0,31437975552.0,14826.0,332.0
0.0,0.0,100.0,0.0,0.0,0.0,319651840.0,172544000.0,1605517312.0,31437975552.0,15906.0,332.0
0.0,0.0,100.0,0.0,0.0,0.0,319651840.0,172544000.0,1605517312.0,31437975552.0,15906.0,332.0
0.0,0.0,100.0,0.0,0.0,0.0,319651840.0,172544000.0,1605517312.0,31437975552.0,13896.0,332.0
0.0,0.0,100.0,0.0,0.0,0.0,319651840.0,172544000.0,1605517312.0,31437975552.0,13818.0,332.0
0.0,0.0,99.800,0.200,0.0,0.0,319762432.0,172552192.0,1605525504.0,31437848576.0,12748.0,332.0
0.0,0.0,100.0,0.0,0.0,0.0,319610880.0,172552192.0,1605525504.0,31438000128.0,14366.0,332.0
0.0,0.0,100.0,0.0,0.0,0.0,319635456.0,172552192.0,1605525504.0,31437975552.0,13902.0,332.0
0.0,0.0,99.800,0.0,0.0,0.200,319668224.0,172552192.0,1605525504.0,31437942784.0,13068.0,332.0
0.0,0.0,100.0,0.0,0.0,0.0,319668224.0,172552192.0,1605525504.0,31437942784.0,15040.0,332.0
0.0,0.0,100.0,0.0,0.0,0.0,319668224.0,172552192.0,1605525504.0,31437942784.0,17408.0,332.0
0.0,0.0,99.800,0.200,0.0,0.0,319664128.0,172556288.0,1605525504.0,31437942784.0,18194.0,332.0
0.0,0.0,100.0,0.0,0.0,0.0,319664128.0,172556288.0,1605525504.0,31437942784.0,18789.0,332.0
0.0,0.0,100.0,0.0,0.0,0.0,319631360.0,172556288.0,1605525504.0,31437975552.0,18710.0,332.0
0.0,0.0,100.0,0.0,0.0,0.0,319664128.0,172556288.0,1605525504.0,31437942784.0,16386.0,332.0
0.0,0.0,100.0,0.0,0.0,0.0,319664128.0,172556288.0,1605525504.0,31437942784.0,16790.0,332.0
0.0,0.0,99.800,0.200,0.0,0.0,319655936.0,172564480.0,1605525504.0,31437942784.0,17012.0,332.0
0.0,0.0,100.0,0.0,0.0,0.0,319655936.0,172564480.0,1605525504.0,31437942784.0,15202.0,332.0
0.0,0.0,100.0,0.0,0.0,0.0,319688704.0,172564480.0,1605525504.0,31437910016.0,16106.0,332.0
0.0,0.0,100.0,0.0,0.0,0.0,319688704.0,172564480.0,1605525504.0,31437910016.0,14432.0,374.0
0.0,0.0,100.0,0.0,0.0,0.0,319688704.0,172564480.0,1605525504.0,31437910016.0,14744.0,332.0
0.0,0.0,99.800,0.0,0.0,0.200,319688704.0,172564480.0,1605525504.0,31437910016.0,16056.0,332.0
0.0,0.0,99.600,0.400,0.0,0.0,319680512.0,172572672.0,1605525504.0,31437910016.0,17436.0,332.0
0.0,0.0,100.0,0.0,0.0,0.0,319680512.0,172572672.0,1605525504.0,31437910016.0,17214.0,332.0
0.0,0.0,100.0,0.0,0.0,0.0,319680512.0,172572672.0,1605525504.0,31437910016.0,15692.0,332.0
0.0,0.0,100.0,0.0,0.0,0.0,319647744.0,172572672.0,1605525504.0,31437942784.0,15680.0,332.0
0.0,0.200,99.800,0.0,0.0,0.0,319680512.0,172572672.0,1605525504.0,31437910016.0,15774.0,858.0
0.401,0.601,98.798,0.200,0.0,0.0,319815680.0,172580864.0,1605525504.0,31437766656.0,17222.0,1466.0
0.0,0.0,100.0,0.0,0.0,0.0,319799296.0,172580864.0,1605525504.0,31437783040.0,17054.0,740.0
0.0,0.0,100.0,0.0,0.0,0.0,319766528.0,172580864.0,1605525504.0,31437815808.0,16192.0,638.0
0.0,0.0,100.0,0.0,0.0,0.0,319569920.0,172580864.0,1605525504.0,31438012416.0,16058.0,804.0
0.0,0.0,100.0,0.0,0.0,0.0,319512576.0,172580864.0,1605525504.0,31438069760.0,14352.0,332.0
0.0,0.0,99.799,0.201,0.0,0.0,319385600.0,172584960.0,1605525504.0,31438192640.0,13440.0,332.0
0.0,0.0,100.0,0.0,0.0,0.0,319320064.0,172584960.0,1605525504.0,31438258176.0,14550.0,332.0
2.222,5.051,92.727,0.0,0.0,0.0,320106496.0,172584960.0,1605525504.0,31437471744.0,18787.0,5515.0
0.0,0.0,100.0,0.0,0.0,0.0,319942656.0,172584960.0,1605525504.0,31437635584.0,15084.0,332.0
0.0,0.0,100.0,0.0,0.0,0.0,319844352.0,172584960.0,1605525504.0,31437733888.0,17054.0,332.0
0.0,0.0,100.0,0.0,0.0,0.0,319651840.0,172584960.0,1605525504.0,31437926400.0,16356.0,332.0
0.0,0.0,99.800,0.200,0.0,0.0,319455232.0,172589056.0,1605525504.0,31438118912.0,16834.0,332.0
0.0,0.0,100.0,0.0,0.0,0.0,319389696.0,172589056.0,1605525504.0,31438184448.0,15362.0,332.0
0.0,0.0,100.0,0.0,0.0,0.0,319389696.0,172589056.0,1605525504.0,31438184448.0,15056.0,332.0
0.0,0.0,100.0,0.0,0.0,0.0,319070208.0,172589056.0,1605525504.0,31438503936.0,15066.0,332.0
0.0,0.0,100.0,0.0,0.0,0.0,318971904.0,172589056.0,1605525504.0,31438602240.0,14880.0,332.0
0.0,0.0,99.800,0.200,0.0,0.0,318902272.0,172593152.0,1605525504.0,31438667776.0,14066.0,332.0
0.0,0.0,100.0,0.0,0.0,0.0,318836736.0,172593152.0,1605525504.0,31438733312.0,13943.0,332.0
0.0,0.0,100.0,0.0,0.0,0.0,318672896.0,172593152.0,1605525504.0,31438897152.0,12658.0,332.0
0.0,0.0,100.0,0.0,0.0,0.0,318640128.0,172593152.0,1605525504.0,31438929920.0,12704.0,332.0
0.0,0.0,100.0,0.0,0.0,0.0,318410752.0,172593152.0,1605525504.0,31439159296.0,13666.0,332.0
0.0,0.0,100.0,0.0,0.0,0.0,318312448.0,172593152.0,1605525504.0,31439257600.0,12978.0,332.0
0.0,0.0,99.800,0.200,0.0,0.0,318107648.0,172597248.0,1605529600.0,31439454208.0,13776.0,332.0
0.0,0.0,100.0,0.0,0.0,0.0,318009344.0,172597248.0,1605533696.0,31439548416.0,15284.0,332.0
0.0,0.0,100.0,0.0,0.0,0.0,317779968.0,172597248.0,1605533696.0,31439777792.0,16700.0,332.0
0.0,0.0,100.0,0.0,0.0,0.0,317681664.0,172597248.0,1605533696.0,31439876096.0,17612.0,332.0
0.0,0.0,100.0,0.0,0.0,0.0,317550592.0,172597248.0,1605533696.0,31440007168.0,16926.0,332.0
0.0,0.0,99.600,0.400,0.0,0.0,317480960.0,172601344.0,1605533696.0,31440072704.0,15328.0,332.0
0.0,0.0,100.0,0.0,0.0,0.0,317448192.0,172601344.0,1605533696.0,31440105472.0,15202.0,332.0
0.0,0.0,100.0,0.0,0.0,0.0,317284352.0,172601344.0,1605533696.0,31440269312.0,15292.0,332.0
0.0,0.0,100.0,0.0,0.0,0.0,317153280.0,172601344.0,1605533696.0,31440400384.0,14550.0,374.0
0.0,0.0,100.0,0.0,0.0,0.0,317153280.0,172601344.0,1605533696.0,31440400384.0,15570.0,332.0
0.0,0.0,100.0,0.0,0.0,0.0,317022208.0,172601344.0,1605533696.0,31440531456.0,16210.0,332.0
0.0,0.0,99.600,0.400,0.0,0.0,316948480.0,172609536.0,1605533696.0,31440596992.0,16616.0,332.0
0.0,0.0,100.0,0.0,0.0,0.0,316600320.0,172609536.0,1605533696.0,31440945152.0,15706.0,332.0
0.0,0.0,100.0,0.0,0.0,0.0,316686336.0,172609536.0,1605533696.0,31440859136.0,13102.0,332.0
0.0,0.0,100.0,0.0,0.0,0.0,316588032.0,172609536.0,1605533696.0,31440957440.0,14348.0,332.0
0.0,0.0,100.0,0.0,0.0,0.0,316489728.0,172609536.0,1605533696.0,31441055744.0,14984.0,332.0
0.0,0.0,99.800,0.200,0.0,0.0,316383232.0,172617728.0,1605533696.0,31441154048.0,14020.0,332.0
0.0,0.0,100.0,0.0,0.0,0.0,316350464.0,172617728.0,1605533696.0,31441186816.0,16322.0,332.0
0.0,0.0,100.0,0.0,0.0,0.0,316252160.0,172617728.0,1605533696.0,31441285120.0,15846.0,332.0
0.0,0.0,100.0,0.0,0.0,0.0,316121088.0,172617728.0,1605533696.0,31441416192.0,15530.0,332.0
0.0,0.0,100.0,0.0,0.0,0.0,315895808.0,172617728.0,1605533696.0,31441641472.0,15328.0,332.0
0.0,0.0,100.0,0.0,0.0,0.0,315924480.0,172617728.0,1605533696.0,31441612800.0,14772.0,332.0
0.0,0.0,99.800,0.200,0.0,0.0,315727872.0,172617728.0,1605533696.0,31441809408.0,14478.0,332.0
0.0,0.0,100.0,0.0,0.0,0.0,315531264.0,172617728.0,1605533696.0,31442006016.0,13886.0,332.0
0.0,0.0,100.0,0.0,0.0,0.0,315498496.0,172617728.0,1605533696.0,31442038784.0,16066.0,332.0
0.0,0.201,99.799,0.0,0.0,0.0,315039744.0,172617728.0,1605533696.0,31442497536.0,17470.0,1756.0
0.0,0.0,100.0,0.0,0.0,0.0,315039744.0,172617728.0,1605533696.0,31442497536.0,16542.0,332.0
0.0,0.0,99.799,0.201,0.0,0.0,314941440.0,172617728.0,1605533696.0,31442595840.0,18562.0,332.0
0.0,0.0,100.0,0.0,0.0,0.0,314875904.0,172617728.0,1605533696.0,31442661376.0,15790.0,332.0
0.0,0.0,100.0,0.0,0.0,0.0,314777600.0,172617728.0,1605533696.0,31442759680.0,15254.0,332.0
0.0,0.0,100.0,0.0,0.0,0.0,314712064.0,172617728.0,1605533696.0,31442825216.0,14706.0,374.0
0.0,0.0,100.0,0.0,0.0,0.0,314679296.0,172617728.0,1605533696.0,31442857984.0,15116.0,332.0
0.0,0.0,100.0,0.0,0.0,0.0,314580992.0,172617728.0,1605533696.0,31442956288.0,14312.0,332.0
0.0,0.0,99.799,0.201,0.0,0.0,314449920.0,172617728.0,1605533696.0,31443087360.0,14736.0,332.0
0.0,0.0,100.0,0.0,0.0,0.0,314384384.0,172617728.0,1605533696.0,31443152896.0,14488.0,332.0
0.0,0.0,100.0,0.0,0.0,0.0,314286080.0,172617728.0,1605533696.0,31443251200.0,14422.0,332.0
0.0,0.0,100.0,0.0,0.0,0.0,314253312.0,172617728.0,1605533696.0,31443283968.0,13906.0,332.0
0.0,0.0,100.0,0.0,0.0,0.0,314220544.0,172617728.0,1605533696.0,31443316736.0,14356.0,332.0
0.0,0.0,99.600,0.400,0.0,0.0,313991168.0,172621824.0,1605533696.0,31443542016.0,14168.0,332.0
0.0,0.0,100.0,0.0,0.0,0.0,314085376.0,172621824.0,1605533696.0,31443447808.0,15194.0,332.0
0.401,2.405,95.391,1.804,0.0,0.0,314515456.0,172634112.0,1605533696.0,31443005440.0,15278.0,949.0
0.200,0.401,99.399,0.0,0.0,0.0,314355712.0,172634112.0,1605533696.0,31443165184.0,15078.0,332.0
0.0,0.0,100.0,0.0,0.0,0.0,314290176.0,172634112.0,1605533696.0,31443230720.0,18388.0,332.0
0.0,0.0,100.0,0.0,0.0,0.0,313872384.0,172634112.0,1605533696.0,31443648512.0,17686.0,332.0
0.0,0.0,100.0,0.0,0.0,0.0,313491456.0,172634112.0,1605533696.0,31444029440.0,15784.0,332.0
0.0,0.0,100.0,0.0,0.0,0.0,313769984.0,172634112.0,1605541888.0,31443742720.0,16152.0,374.0
0.0,0.0,99.598,0.402,0.0,0.0,313769984.0,172634112.0,1605541888.0,31443742720.0,15742.0,332.0
0.0,0.0,100.0,0.0,0.0,0.0,313675776.0,172634112.0,1605541888.0,31443836928.0,15548.0,332.0
0.0,0.0,100.0,0.0,0.0,0.0,313643008.0,172634112.0,1605541888.0,31443869696.0,15372.0,332.0
0.0,0.0,100.0,0.0,0.0,0.0,313643008.0,172634112.0,1605541888.0,31443869696.0,15494.0,332.0
0.0,0.200,99.800,0.0,0.0,0.0,313643008.0,172634112.0,1605541888.0,31443869696.0,15478.0,398.0
0.0,0.0,99.799,0.201,0.0,0.0,313638912.0,172638208.0,1605541888.0,31443869696.0,22720.0,332.0
0.0,0.0,100.0,0.0,0.0,0.0,313638912.0,172638208.0,1605541888.0,31443869696.0,16664.0,332.0
0.0,0.0,100.0,0.0,0.0,0.0,313671680.0,172638208.0,1605541888.0,31443836928.0,15414.0,440.0
0.0,0.0,100.0,0.0,0.0,0.0,313671680.0,172638208.0,1605541888.0,31443836928.0,15728.0,332.0
0.0,0.0,100.0,0.0,0.0,0.0,313671680.0,172638208.0,1605541888.0,31443836928.0,15636.0,374.0
0.0,0.0,100.0,0.0,0.0,0.0,313671680.0,172638208.0,1605541888.0,31443836928.0,14484.0,332.0
0.0,0.402,99.195,0.402,0.0,0.0,313524224.0,172642304.0,1605541888.0,31443980288.0,15041.0,723.0
0.0,0.0,100.0,0.0,0.0,0.0,313507840.0,172642304.0,1605541888.0,31443996672.0,13934.0,332.0
0.0,0.601,99.399,0.0,0.0,0.0,313683968.0,172642304.0,1605541888.0,31443820544.0,13838.0,332.0
0.0,0.401,99.599,0.0,0.0,0.0,313286656.0,172642304.0,1605541888.0,31444217856.0,15571.0,621.0
0.0,0.0,100.0,0.0,0.0,0.0,313286656.0,172642304.0,1605541888.0,31444217856.0,16360.0,332.0
0.0,0.0,99.599,0.401,0.0,0.0,313249792.0,172646400.0,1605541888.0,31444250624.0,15984.0,332.0
0.0,0.0,100.0,0.0,0.0,0.0,313249792.0,172646400.0,1605541888.0,31444250624.0,16518.0,332.0
0.0,0.0,100.0,0.0,0.0,0.0,313249792.0,172646400.0,1605541888.0,31444250624.0,15952.0,332.0
0.0,0.0,100.0,0.0,0.0,0.0,313376768.0,172646400.0,1605541888.0,31444123648.0,14184.0,332.0
0.0,0.0,100.0,0.0,0.0,0.0,313249792.0,172646400.0,1605541888.0,31444250624.0,13006.0,332.0
0.0,0.0,100.0,0.0,0.0,0.0,313249792.0,172646400.0,1605541888.0,31444250624.0,14030.0,332.0
0.0,0.0,99.599,0.401,0.0,0.0,313241600.0,172654592.0,1605541888.0,31444250624.0,12378.0,332.0
0.0,0.0,100.0,0.0,0.0,0.0,313241600.0,172654592.0,1605541888.0,31444250624.0,12456.0,332.0
0.0,0.0,100.0,0.0,0.0,0.0,313274368.0,172654592.0,1605541888.0,31444217856.0,11726.0,332.0
0.0,0.0,100.0,0.0,0.0,0.0,313274368.0,172654592.0,1605541888.0,31444217856.0,11532.0,332.0
0.0,0.0,100.0,0.0,0.0,0.0,313274368.0,172654592.0,1605541888.0,31444217856.0,12158.0,332.0
0.0,0.0,99.800,0.200,0.0,0.0,313270272.0,172658688.0,1605541888.0,31444217856.0,12618.0,332.0
0.0,0.0,100.0,0.0,0.0,0.0,313270272.0,172658688.0,1605541888.0,31444217856.0,14036.0,332.0
0.0,0.0,100.0,0.0,0.0,0.0,313270272.0,172658688.0,1605541888.0,31444217856.0,15040.0,374.0
0.0,0.0,100.0,0.0,0.0,0.0,313270272.0,172658688.0,1605541888.0,31444217856.0,14372.0,332.0
0.0,0.0,100.0,0.0,0.0,0.0,313270272.0,172658688.0,1605541888.0,31444217856.0,14224.0,332.0
0.0,0.0,99.799,0.201,0.0,0.0,313421824.0,172666880.0,1605541888.0,31444058112.0,14070.0,332.0
0.0,0.0,100.0,0.0,0.0,0.0,313110528.0,172666880.0,1605541888.0,31444369408.0,12630.0,332.0
0.0,0.0,100.0,0.0,0.0,0.0,313262080.0,172666880.0,1605541888.0,31444217856.0,12906.0,332.0
0.0,0.0,100.0,0.0,0.0,0.0,313262080.0,172666880.0,1605541888.0,31444217856.0,13932.0,332.0
0.0,0.0,100.0,0.0,0.0,0.0,313294848.0,172666880.0,1605541888.0,31444185088.0,13986.0,332.0
0.0,0.0,100.0,0.0,0.0,0.0,313421824.0,172666880.0,1605541888.0,31444058112.0,14526.0,332.0
0.0,0.0,99.600,0.400,0.0,0.0,313290752.0,172670976.0,1605541888.0,31444185088.0,14776.0,332.0
0.0,0.0,100.0,0.0,0.0,0.0,313290752.0,172670976.0,1605541888.0,31444185088.0,14440.0,332.0
0.0,0.0,100.0,0.0,0.0,0.0,313290752.0,172670976.0,1605541888.0,31444185088.0,13804.0,332.0
0.0,0.0,100.0,0.0,0.0,0.0,313290752.0,172670976.0,1605541888.0,31444185088.0,14560.0,332.0
0.0,0.0,100.0,0.0,0.0,0.0,313290752.0,172670976.0,1605541888.0,31444185088.0,14622.0,332.0
0.0,0.0,99.800,0.200,0.0,0.0,313286656.0,172670976.0,1605545984.0,31444185088.0,14002.0,332.0
0.0,0.0,100.0,0.0,0.0,0.0,313409536.0,172670976.0,1605550080.0,31444058112.0,14040.0,332.0
0.0,0.0,100.0,0.0,0.0,0.0,313282560.0,172670976.0,1605550080.0,31444185088.0,14810.0,332.0
0.0,0.0,100.0,0.0,0.0,0.0,313442304.0,172670976.0,1605550080.0,31444025344.0,15006.0,332.0
0.0,0.0,100.0,0.0,0.0,0.0,313442304.0,172670976.0,1605550080.0,31444025344.0,15766.0,332.0
0.0,0.0,100.0,0.0,0.0,0.0,313442304.0,172670976.0,1605550080.0,31444025344.0,16600.0,332.0
0.0,0.0,99.800,0.200,0.0,0.0,313311232.0,172675072.0,1605550080.0,31444152320.0,17162.0,332.0
0.0,0.0,100.0,0.0,0.0,0.0,313311232.0,172675072.0,1605550080.0,31444152320.0,17050.0,332.0
0.0,0.0,100.0,0.0,0.0,0.0,313311232.0,172675072.0,1605550080.0,31444152320.0,17510.0,332.0
0.0,0.0,100.0,0.0,0.0,0.0,313311232.0,172675072.0,1605550080.0,31444152320.0,17788.0,374.0
0.0,0.0,100.0,0.0,0.0,0.0,313311232.0,172675072.0,1605550080.0,31444152320.0,16214.0,332.0
0.0,0.0,99.600,0.400,0.0,0.0,313270272.0,172683264.0,1605550080.0,31444185088.0,16956.0,332.0
0.0,0.0,100.0,0.0,0.0,0.0,313270272.0,172683264.0,1605550080.0,31444185088.0,15518.0,332.0
0.0,0.0,100.0,0.0,0.0,0.0,313270272.0,172683264.0,1605550080.0,31444185088.0,15384.0,332.0
0.0,0.0,100.0,0.0,0.0,0.0,313303040.0,172683264.0,1605550080.0,31444152320.0,14700.0,332.0
0.0,0.0,100.0,0.0,0.0,0.0,313303040.0,172683264.0,1605550080.0,31444152320.0,15524.0,332.0
0.0,0.0,100.0,0.0,0.0,0.0,313303040.0,172683264.0,1605550080.0,31444152320.0,15146.0,332.0
0.0,0.0,99.799,0.201,0.0,0.0,313262080.0,172691456.0,1605550080.0,31444185088.0,16520.0,332.0
0.0,0.0,100.0,0.0,0.0,0.0,313262080.0,172691456.0,1605550080.0,31444185088.0,17432.0,332.0
0.0,0.0,100.0,0.0,0.0,0.0,313294848.0,172691456.0,1605550080.0,31444152320.0,15560.0,332.0
0.0,0.0,100.0,0.0,0.0,0.0,313421824.0,172691456.0,1605550080.0,31444025344.0,16002.0,332.0
0.0,0.0,100.0,0.0,0.0,0.0,313262080.0,172691456.0,1605550080.0,31444185088.0,14528.0,332.0
0.0,0.0,99.800,0.200,0.0,0.0,313257984.0,172695552.0,1605550080.0,31444185088.0,15582.0,332.0
0.0,0.0,100.0,0.0,0.0,0.0,313126912.0,172695552.0,1605550080.0,31444316160.0,15456.0,332.0
0.0,0.0,100.0,0.0,0.0,0.0,313221120.0,172695552.0,1605550080.0,31444221952.0,15108.0,332.0
0.0,0.0,100.0,0.0,0.0,0.0,313094144.0,172695552.0,1605550080.0,31444348928.0,15496.0,332.0
0.0,0.0,100.0,0.0,0.0,0.0,312995840.0,172695552.0,1605550080.0,31444447232.0,16920.0,332.0
0.0,0.0,100.0,0.0,0.0,0.0,312897536.0,172695552.0,1605550080.0,31444545536.0,17034.0,332.0
0.0,0.0,99.600,0.400,0.0,0.0,312893440.0,172699648.0,1605550080.0,31444545536.0,17896.0,332.0
0.0,0.0,100.0,0.0,0.0,0.0,312827904.0,172699648.0,1605550080.0,31444611072.0,17530.0,332.0
0.0,0.0,100.0,0.0,0.0,0.0,312729600.0,172699648.0,1605550080.0,31444709376.0,16972.0,332.0
0.0,0.0,100.0,0.0,0.0,0.0,312725504.0,172699648.0,1605550080.0,31444713472.0,15172.0,374.0
0.0,0.0,100.0,0.0,0.0,0.0,312598528.0,172699648.0,1605550080.0,31444840448.0,14530.0,332.0
0.0,0.0,99.800,0.200,0.0,0.0,312528896.0,172703744.0,1605550080.0,31444905984.0,13812.0,332.0
0.0,0.0,100.0,0.0,0.0,0.0,312496128.0,172703744.0,1605550080.0,31444938752.0,13252.0,332.0
0.0,0.0,100.0,0.0,0.0,0.0,312430592.0,172703744.0,1605550080.0,31445004288.0,13718.0,332.0
0.0,0.0,100.0,0.0,0.0,0.0,312397824.0,172703744.0,1605550080.0,31445037056.0,12596.0,332.0
0.0,0.0,100.0,0.0,0.0,0.0,312397824.0,172703744.0,1605550080.0,31445037056.0,12468.0,332.0
0.0,0.0,100.0,0.0,0.0,0.0,312332288.0,172703744.0,1605550080.0,31445102592.0,12042.0,332.0
0.0,0.0,99.599,0.401,0.0,0.0,312328192.0,172707840.0,1605550080.0,31445102592.0,12350.0,332.0
0.0,0.0,100.0,0.0,0.0,0.0,312455168.0,172707840.0,1605550080.0,31444975616.0,14484.0,332.0
0.0,0.0,100.0,0.0,0.0,0.0,312328192.0,172707840.0,1605550080.0,31445102592.0,14270.0,332.0
0.0,0.0,100.0,0.0,0.0,0.0,312328192.0,172707840.0,1605550080.0,31445102592.0,14028.0,332.0
0.0,0.0,100.0,0.0,0.0,0.0,312295424.0,172707840.0,1605550080.0,31445135360.0,14020.0,332.0
0.0,0.0,99.799,0.201,0.0,0.0,312287232.0,172716032.0,1605550080.0,31445135360.0,16548.0,332.0
0.0,0.0,100.0,0.0,0.0,0.0,312217600.0,172716032.0,1605554176.0,31445200896.0,12664.0,332.0
0.200,0.0,99.800,0.0,0.0,0.0,312324096.0,172716032.0,1605558272.0,31445090304.0,12604.0,332.0
0.0,0.0,100.0,0.0,0.0,0.0,312274944.0,172716032.0,1605558272.0,31445139456.0,12764.0,332.0
0.0,0.0,100.0,0.0,0.0,0.0,312274944.0,172716032.0,1605558272.0,31445139456.0,13154.0,332.0
0.0,0.0,100.0,0.0,0.0,0.0,312242176.0,172716032.0,1605558272.0,31445172224.0,12164.0,332.0
0.0,0.0,99.599,0.401,0.0,0.0,312205312.0,172720128.0,1605558272.0,31445204992.0,13956.0,332.0
0.0,0.0,100.0,0.0,0.0,0.0,312074240.0,172720128.0,1605558272.0,31445336064.0,14226.0,332.0
0.0,0.0,100.0,0.0,0.0,0.0,312074240.0,172720128.0,1605558272.0,31445336064.0,14626.0,842.0
0.200,0.401,99.399,0.0,0.0,0.0,311848960.0,172720128.0,1605558272.0,31445561344.0,16056.0,748.0
0.0,0.200,99.800,0.0,0.0,0.0,311717888.0,172720128.0,1605558272.0,31445692416.0,16490.0,578.0
0.0,0.0,99.599,0.401,0.0,0.0,311681024.0,172724224.0,1605558272.0,31445725184.0,17490.0,866.0
0.0,0.0,100.0,0.0,0.0,0.0,311615488.0,172724224.0,1605558272.0,31445790720.0,16410.0,850.0
0.0,0.0,100.0,0.0,0.0,0.0,311615488.0,172724224.0,1605558272.0,31445790720.0,14390.0,1054.0
0.0,0.0,100.0,0.0,0.0,0.0,311549952.0,172724224.0,1605558272.0,31445856256.0,14056.0,756.0
0.0,0.0,100.0,0.0,0.0,0.0,311451648.0,172724224.0,1605558272.0,31445954560.0,14872.0,654.0
