"Dstat 0.7.2 CSV output"
"Author:","Dag Wieers <dag@wieers.com>",,,,"URL:","http://dag.wieers.com/home-made/dstat/"
"Host:","node1.tf-assign2.uwmadison744-f19-pg0.wisc.cloudlab.us",,,,"User:","lyang296"
"Cmdline:","dstat --cpu --mem --net --output node1.csv",,,,"Date:","11 Oct 2019 12:13:48 CDT"

"total cpu usage",,,,,,"memory usage",,,,"net/total",
"usr","sys","idl","wai","hiq","siq","used","buff","cach","free","recv","send"
0.363,0.097,99.528,0.005,0.0,0.007,328302592.0,182550528.0,1599324160.0,31425511424.0,0.0,0.0
17.907,9.054,73.038,0.0,0.0,0.0,399319040.0,182550528.0,1599328256.0,31354490880.0,19711.0,1652.0
15.663,4.819,79.518,0.0,0.0,0.0,487882752.0,182550528.0,1599328256.0,31265927168.0,20199.0,7452.0
5.823,14.056,80.120,0.0,0.0,0.0,849063936.0,182550528.0,1599328256.0,30904745984.0,19525.0,166.0
4.810,15.431,79.359,0.401,0.0,0.0,872771584.0,182558720.0,1599328256.0,30881030144.0,18682.0,766.0
11.857,10.067,78.076,0.0,0.0,0.0,1063473152.0,182558720.0,1599328256.0,30690328576.0,20747.0,9808.0
4.435,14.516,80.645,0.0,0.0,0.403,1338408960.0,182558720.0,1599328256.0,30415392768.0,284907.0,21681.0
5.823,14.458,79.719,0.0,0.0,0.0,1505366016.0,182558720.0,1599328256.0,30248435712.0,25974.0,2982.0
5.600,14.800,79.600,0.0,0.0,0.0,1467072512.0,182558720.0,1599328256.0,30286729216.0,25469.0,1452.0
5.422,14.458,80.120,0.0,0.0,0.0,1561182208.0,182558720.0,1599328256.0,30192619520.0,25612.0,166.0
6.212,14.429,79.158,0.200,0.0,0.0,1540993024.0,182562816.0,1599328256.0,30212804608.0,25246.0,796.0
10.643,9.639,79.719,0.0,0.0,0.0,1559375872.0,182562816.0,1599328256.0,30194421760.0,18278.0,1548.0
14.800,5.400,79.800,0.0,0.0,0.0,1526235136.0,182562816.0,1599328256.0,30227562496.0,20898.0,530.0
6.707,1.829,91.463,0.0,0.0,0.0,1546104832.0,182562816.0,1599328256.0,30207692800.0,513174.0,102120.0
0.200,0.0,99.800,0.0,0.0,0.0,1546108928.0,182562816.0,1599328256.0,30207688704.0,22536.0,1564.0
0.0,0.0,100.0,0.0,0.0,0.0,1545728000.0,182562816.0,1599328256.0,30208069632.0,21523.0,166.0
0.0,0.201,99.398,0.402,0.0,0.0,1545924608.0,182562816.0,1599328256.0,30207873024.0,20439.0,852.0
0.0,0.0,100.0,0.0,0.0,0.0,1545695232.0,182562816.0,1599328256.0,30208102400.0,20727.0,166.0
2.016,0.403,97.581,0.0,0.0,0.0,1548517376.0,182562816.0,1599328256.0,30205280256.0,675064.0,655356.0
0.0,0.201,99.799,0.0,0.0,0.0,1548419072.0,182562816.0,1599328256.0,30205378560.0,21889.0,2922.0
0.201,0.0,99.799,0.0,0.0,0.0,1548578816.0,182562816.0,1599328256.0,30205218816.0,20637.0,314.0
0.0,0.600,99.400,0.0,0.0,0.0,1548451840.0,182562816.0,1599328256.0,30205345792.0,21787.0,1038.0
0.200,0.200,99.399,0.200,0.0,0.0,1548447744.0,182566912.0,1599328256.0,30205345792.0,22210.0,662.0
0.0,0.0,99.800,0.0,0.0,0.200,1548611584.0,182566912.0,1599328256.0,30205181952.0,21280.0,240.0
0.200,0.200,99.599,0.0,0.0,0.0,1548541952.0,182566912.0,1599328256.0,30205251584.0,23445.0,454.0
0.200,0.200,99.599,0.0,0.0,0.0,1548218368.0,182566912.0,1599328256.0,30205575168.0,22431.0,638.0
0.0,0.0,100.0,0.0,0.0,0.0,1548349440.0,182566912.0,1599328256.0,30205444096.0,21234.0,240.0
0.0,0.201,99.799,0.0,0.0,0.0,1548349440.0,182566912.0,1599328256.0,30205444096.0,21883.0,462.0
0.200,0.200,99.399,0.200,0.0,0.0,1548447744.0,182566912.0,1599328256.0,30205345792.0,21617.0,670.0
0.0,0.0,100.0,0.0,0.0,0.0,1548480512.0,182566912.0,1599328256.0,30205313024.0,20584.0,240.0
0.0,0.401,99.599,0.0,0.0,0.0,1548578816.0,182566912.0,1599328256.0,30205214720.0,20044.0,702.0
0.201,0.201,99.598,0.0,0.0,0.0,1548677120.0,182566912.0,1599328256.0,30205116416.0,20957.0,430.0
0.0,0.0,100.0,0.0,0.0,0.0,1548840960.0,182566912.0,1599328256.0,30204952576.0,23798.0,240.0
0.0,0.401,99.599,0.0,0.0,0.0,1548840960.0,182566912.0,1599328256.0,30204952576.0,24901.0,462.0
0.201,0.402,99.197,0.201,0.0,0.0,1548972032.0,182566912.0,1599328256.0,30204821504.0,26154.0,446.0
2.240,7.943,89.817,0.0,0.0,0.0,321179648.0,182566912.0,1599299584.0,31432642560.0,32854.0,6751.0
0.200,0.400,99.400,0.0,0.0,0.0,321150976.0,182566912.0,1599299584.0,31432671232.0,23311.0,4316.0
