"Dstat 0.7.2 CSV output"
"Author:","Dag Wieers <dag@wieers.com>",,,,"URL:","http://dag.wieers.com/home-made/dstat/"
"Host:","node2.tf-assign2.uwmadison744-f19-pg0.wisc.cloudlab.us",,,,"User:","lyang296"
"Cmdline:","dstat --cpu --mem --net --output ./report.csv",,,,"Date:","07 Oct 2019 13:55:09 CDT"

"total cpu usage",,,,,,"memory usage",,,,"net/total",
"usr","sys","idl","wai","hiq","siq","used","buff","cach","free","recv","send"
0.116,0.050,99.825,0.006,0.0,0.003,808599552.0,153772032.0,1453379584.0,31119937536.0,0.0,0.0
38.289,13.849,47.251,0.407,0.0,0.204,859463680.0,153772032.0,1454866432.0,31067586560.0,17738.0,892.0
55.354,5.657,38.586,0.404,0.0,0.0,901251072.0,153780224.0,1457491968.0,31023165440.0,17430.0,952.0
43.418,3.143,53.438,0.0,0.0,0.0,907169792.0,153780224.0,1459994624.0,31014744064.0,19402.0,7610.0
44.828,3.245,51.724,0.0,0.0,0.203,771928064.0,153784320.0,1462374400.0,31147601920.0,19372.0,2071.0
25.257,7.598,67.146,0.0,0.0,0.0,772296704.0,153784320.0,1463910400.0,31145697280.0,18122.0,540.0
41.961,2.353,55.490,0.196,0.0,0.0,773365760.0,153788416.0,1466261504.0,31142273024.0,18534.0,952.0
40.644,1.811,57.143,0.201,0.0,0.201,771158016.0,153788416.0,1468755968.0,31141986304.0,18650.0,1166.0
38.809,2.259,58.932,0.0,0.0,0.0,770859008.0,153792512.0,1471176704.0,31139860480.0,17458.0,754.0
28.169,6.036,65.795,0.0,0.0,0.0,771309568.0,153792512.0,1472757760.0,31137828864.0,17572.0,540.0
41.107,1.779,56.719,0.0,0.0,0.395,770568192.0,153796608.0,1475174400.0,31136149504.0,18906.0,848.0
37.945,1.887,59.748,0.210,0.0,0.210,773939200.0,153796608.0,1477562368.0,31130390528.0,17710.0,634.0
39.959,1.434,57.582,0.820,0.0,0.205,770560000.0,153804800.0,1479966720.0,31131357184.0,16570.0,754.0
27.689,6.972,65.139,0.0,0.0,0.199,770908160.0,153804800.0,1481490432.0,31129485312.0,16896.0,697.0
41.247,1.610,57.143,0.0,0.0,0.0,770420736.0,153804800.0,1483976704.0,31127486464.0,17282.0,754.0
39.676,1.822,58.502,0.0,0.0,0.0,769871872.0,153808896.0,1486360576.0,31125647360.0,17666.0,540.0
40.0,1.224,58.571,0.204,0.0,0.0,773210112.0,153808896.0,1488719872.0,31119949824.0,19414.0,9114.0
25.255,6.925,67.413,0.407,0.0,0.0,770125824.0,153821184.0,1490157568.0,31121584128.0,18340.0,634.0
40.202,1.818,57.980,0.0,0.0,0.0,769916928.0,153821184.0,1492492288.0,31119458304.0,17264.0,754.0
41.270,2.381,56.349,0.0,0.0,0.0,770035712.0,153825280.0,1495035904.0,31116791808.0,17466.0,754.0
41.247,1.610,56.942,0.0,0.0,0.201,769929216.0,153825280.0,1497395200.0,31114539008.0,17152.0,540.0
26.969,7.677,65.157,0.197,0.0,0.0,774451200.0,153829376.0,1498824704.0,31108583424.0,16998.0,540.0
38.046,2.495,58.836,0.624,0.0,0.0,770191360.0,153833472.0,1501216768.0,31110447104.0,19452.0,848.0
38.446,2.249,59.305,0.0,0.0,0.0,769990656.0,153837568.0,1503571968.0,31108288512.0,19964.0,736.0
40.816,1.633,57.551,0.0,0.0,0.0,769769472.0,153837568.0,1505918976.0,31106162688.0,21414.0,1406.0
28.429,6.759,64.811,0.0,0.0,0.0,770650112.0,153837568.0,1507450880.0,31103750144.0,20996.0,540.0
41.847,1.572,56.385,0.196,0.0,0.0,774475776.0,153841664.0,1509863424.0,31097507840.0,19826.0,796.0
42.578,1.562,55.469,0.391,0.0,0.0,770846720.0,153845760.0,1512296448.0,31098699776.0,18280.0,634.0
41.454,2.358,56.189,0.0,0.0,0.0,770498560.0,153849856.0,1514672128.0,31096668160.0,17918.0,754.0
26.132,6.584,67.284,0.0,0.0,0.0,771072000.0,153849856.0,1516224512.0,31094542336.0,17260.0,540.0
39.837,2.236,57.927,0.0,0.0,0.0,770736128.0,153853952.0,1518714880.0,31092383744.0,18060.0,754.0
40.244,1.626,58.130,0.0,0.0,0.0,774377472.0,153853952.0,1521188864.0,31086268416.0,18552.0,754.0
40.204,1.633,56.939,1.020,0.0,0.204,770289664.0,153866240.0,1523625984.0,31087906816.0,17786.0,8916.0
27.455,6.212,66.132,0.0,0.0,0.200,771407872.0,153866240.0,1525174272.0,31085240320.0,17236.0,540.0
40.121,2.621,57.258,0.0,0.0,0.0,770850816.0,153870336.0,1527631872.0,31083335680.0,18644.0,754.0
40.864,2.554,56.582,0.0,0.0,0.0,770932736.0,153870336.0,1530089472.0,31080796160.0,19372.0,754.0
40.612,1.633,57.755,0.0,0.0,0.0,774877184.0,153874432.0,1532702720.0,31074234368.0,18732.0,754.0
27.823,6.250,64.516,1.411,0.0,0.0,770764800.0,153882624.0,1534242816.0,31076798464.0,17944.0,540.0
40.0,1.443,58.557,0.0,0.0,0.0,770621440.0,153886720.0,1536700416.0,31074480128.0,18718.0,540.0
38.430,2.479,59.091,0.0,0.0,0.0,770531328.0,153886720.0,1539076096.0,31072194560.0,19540.0,754.0
41.270,1.984,56.746,0.0,0.0,0.0,770228224.0,153890816.0,1541533696.0,31070035968.0,18418.0,754.0
26.141,6.224,67.635,0.0,0.0,0.0,775155712.0,153890816.0,1543094272.0,31063547904.0,16476.0,540.0
37.736,2.725,58.700,0.839,0.0,0.0,771489792.0,153899008.0,1545535488.0,31064764416.0,16646.0,754.0
39.634,1.829,58.537,0.0,0.0,0.0,771121152.0,153903104.0,1547898880.0,31062765568.0,16258.0,540.0
38.095,2.899,59.006,0.0,0.0,0.0,770998272.0,153903104.0,1550340096.0,31060447232.0,16828.0,754.0
27.789,6.491,65.720,0.0,0.0,0.0,772198400.0,153907200.0,1551929344.0,31057653760.0,17558.0,634.0
41.829,2.335,55.837,0.0,0.0,0.0,775340032.0,153907200.0,1554333696.0,31052107776.0,17344.0,856.0
39.712,1.852,57.819,0.617,0.0,0.0,771391488.0,153919488.0,1556815872.0,31053561856.0,18292.0,916.0
40.443,1.811,57.545,0.0,0.0,0.201,771641344.0,153919488.0,1559232512.0,31050895360.0,17760.0,9274.0
25.257,7.392,67.351,0.0,0.0,0.0,771788800.0,153923584.0,1560731648.0,31049244672.0,18206.0,540.0
39.554,2.028,58.418,0.0,0.0,0.0,771678208.0,153923584.0,1563127808.0,31046959104.0,19606.0,754.0
41.414,1.414,57.172,0.0,0.0,0.0,775462912.0,153927680.0,1565581312.0,31040716800.0,17814.0,634.0
39.879,1.417,57.287,1.215,0.0,0.202,771940352.0,153935872.0,1567932416.0,31041880064.0,18840.0,848.0
27.455,6.413,66.132,0.0,0.0,0.0,772034560.0,153939968.0,1569484800.0,31040229376.0,19260.0,540.0
37.660,1.915,60.426,0.0,0.0,0.0,771596288.0,153939968.0,1571827712.0,31038324736.0,18108.0,820.0
41.449,1.408,57.143,0.0,0.0,0.0,771706880.0,153944064.0,1574125568.0,31035912192.0,18160.0,540.0
39.014,2.053,58.932,0.0,0.0,0.0,773742592.0,153944064.0,1576587264.0,31031414784.0,18796.0,754.0
26.572,6.491,66.126,0.609,0.0,0.203,773115904.0,153952256.0,1578139648.0,31030480896.0,17046.0,540.0
40.481,1.804,57.715,0.0,0.0,0.0,772947968.0,153956352.0,1580589056.0,31028195328.0,17236.0,754.0
42.829,1.768,55.403,0.0,0.0,0.0,772747264.0,153956352.0,1583075328.0,31025909760.0,17824.0,754.0
41.365,2.008,56.627,0.0,0.0,0.0,772460544.0,153960448.0,1585610752.0,31023656960.0,18312.0,634.0
27.328,6.478,66.194,0.0,0.0,0.0,776638464.0,153960448.0,1587118080.0,31017971712.0,16564.0,540.0
40.281,2.004,56.713,0.802,0.0,0.200,773013504.0,153968640.0,1589555200.0,31019151360.0,18922.0,754.0
38.604,2.259,59.138,0.0,0.0,0.0,772964352.0,153968640.0,1591984128.0,31016771584.0,18264.0,754.0
41.865,1.389,56.746,0.0,0.0,0.0,773255168.0,153972736.0,1594355712.0,31014105088.0,20088.0,8924.0
28.088,6.773,64.940,0.0,0.0,0.199,773103616.0,153972736.0,1595871232.0,31012741120.0,20694.0,540.0
38.683,2.469,58.848,0.0,0.0,0.0,774725632.0,153976832.0,1598296064.0,31008690176.0,19922.0,754.0
40.443,2.012,56.740,0.805,0.0,0.0,772968448.0,153985024.0,1600663552.0,31008071680.0,19792.0,754.0
41.107,2.372,56.522,0.0,0.0,0.0,772857856.0,153989120.0,1603055616.0,31005786112.0,19434.0,540.0
27.108,7.028,65.863,0.0,0.0,0.0,773464064.0,153989120.0,1604608000.0,31003627520.0,20366.0,642.0
38.911,2.621,58.468,0.0,0.0,0.0,773042176.0,153989120.0,1606934528.0,31001722880.0,19654.0,1196.0
39.468,2.045,58.487,0.0,0.0,0.0,775786496.0,153993216.0,1609326592.0,30996582400.0,18250.0,754.0
39.554,2.637,56.795,1.014,0.0,0.0,772902912.0,154001408.0,1611726848.0,30997057536.0,17358.0,540.0
26.694,5.955,67.351,0.0,0.0,0.0,773812224.0,154005504.0,1613258752.0,30994612224.0,18840.0,540.0
39.300,2.263,58.436,0.0,0.0,0.0,773697536.0,154005504.0,1615626240.0,30992359424.0,18726.0,820.0
38.843,2.066,59.091,0.0,0.0,0.0,773259264.0,154009600.0,1618092032.0,30990327808.0,18406.0,890.0
39.511,1.833,58.656,0.0,0.0,0.0,776744960.0,154009600.0,1620496384.0,30984437760.0,20810.0,676.0
26.423,6.911,65.854,0.813,0.0,0.0,773337088.0,154021888.0,1621999616.0,30986330112.0,19798.0,890.0
39.792,1.667,58.333,0.0,0.0,0.208,772984832.0,154021888.0,1624416256.0,30984265728.0,18850.0,672.0
40.486,2.227,57.287,0.0,0.0,0.0,772784128.0,154025984.0,1626865664.0,30982012928.0,18308.0,754.0
39.228,2.033,58.740,0.0,0.0,0.0,772542464.0,154025984.0,1629265920.0,30979854336.0,17626.0,754.0
27.600,7.200,65.200,0.0,0.0,0.0,776937472.0,154030080.0,1630818304.0,30973902848.0,17058.0,8924.0
38.272,2.675,58.025,1.029,0.0,0.0,773328896.0,154038272.0,1633136640.0,30975184896.0,93675.0,540.0
40.800,1.600,57.600,0.0,0.0,0.0,773382144.0,154042368.0,1635491840.0,30972772352.0,55946.0,754.0
39.337,1.863,58.799,0.0,0.0,0.0,773222400.0,154042368.0,1637937152.0,30970486784.0,47866.0,754.0
26.626,6.911,66.463,0.0,0.0,0.0,773722112.0,154042368.0,1639501824.0,30968422400.0,43582.0,540.0
41.992,2.148,55.664,0.0,0.0,0.195,776105984.0,154046464.0,1641820160.0,30963716096.0,42292.0,540.0
41.379,1.623,56.389,0.609,0.0,0.0,773910528.0,154054656.0,1644314624.0,30963408896.0,13672.0,1166.0
40.535,1.440,58.025,0.0,0.0,0.0,774062080.0,154058752.0,1646698496.0,30960869376.0,16320.0,754.0
26.316,7.085,66.397,0.0,0.0,0.202,774557696.0,154058752.0,1648234496.0,30958837760.0,17844.0,540.0
41.036,2.191,56.773,0.0,0.0,0.0,774066176.0,154062848.0,1650593792.0,30956965888.0,18916.0,540.0
41.153,2.386,56.461,0.0,0.0,0.0,777220096.0,154062848.0,1653096448.0,30951309312.0,20726.0,754.0
40.283,2.024,57.085,0.607,0.0,0.0,774008832.0,154071040.0,1655533568.0,30952075264.0,20778.0,856.0
27.689,7.171,65.139,0.0,0.0,0.0,775008256.0,154071040.0,1657073664.0,30949535744.0,20784.0,916.0
38.542,1.458,60.0,0.0,0.0,0.0,774909952.0,154075136.0,1659453440.0,30947250176.0,21674.0,754.0
39.554,2.637,57.809,0.0,0.0,0.0,774586368.0,154075136.0,1661808640.0,30945218560.0,20964.0,540.0
40.891,1.822,57.287,0.0,0.0,0.0,777035776.0,154079232.0,1664270336.0,30940303360.0,20860.0,848.0
26.273,7.332,65.173,1.222,0.0,0.0,774742016.0,154087424.0,1665802240.0,30941057024.0,21642.0,8900.0
41.331,1.411,57.258,0.0,0.0,0.0,774569984.0,154091520.0,1668255744.0,30938771456.0,20072.0,754.0
38.351,2.268,59.381,0.0,0.0,0.0,774606848.0,154091520.0,1670631424.0,30936358912.0,17678.0,582.0
41.535,2.559,55.906,0.0,0.0,0.0,774651904.0,154095616.0,1672994816.0,30933946368.0,19538.0,1166.0
24.116,7.277,68.607,0.0,0.0,0.0,779300864.0,154095616.0,1674559488.0,30927732736.0,18190.0,540.0
37.578,2.296,59.499,0.626,0.0,0.0,775286784.0,154103808.0,1676890112.0,30929408000.0,19548.0,848.0
37.684,1.474,60.842,0.0,0.0,0.0,774942720.0,154107904.0,1679261696.0,30927376384.0,19086.0,634.0
40.486,2.024,57.490,0.0,0.0,0.0,774860800.0,154107904.0,1681756160.0,30924963840.0,19652.0,754.0
25.0,7.438,67.562,0.0,0.0,0.0,775909376.0,154112000.0,1683369984.0,30922297344.0,19182.0,540.0
38.689,1.903,59.197,0.0,0.0,0.211,775090176.0,154112000.0,1685839872.0,30920646656.0,19540.0,848.0
38.784,1.677,58.491,1.048,0.0,0.0,774983680.0,154120192.0,1688289280.0,30918295552.0,20002.0,754.0
40.650,1.220,58.130,0.0,0.0,0.0,774971392.0,154120192.0,1690714112.0,30915883008.0,19758.0,634.0
28.543,6.496,64.961,0.0,0.0,0.0,775405568.0,154124288.0,1692180480.0,30913978368.0,20772.0,634.0
40.964,2.410,56.627,0.0,0.0,0.0,775303168.0,154124288.0,1694695424.0,30911565824.0,19712.0,754.0
39.425,2.053,58.316,0.0,0.0,0.205,775221248.0,154128384.0,1697185792.0,30909153280.0,19180.0,754.0
40.763,2.410,56.024,0.803,0.0,0.0,775008256.0,154136576.0,1699610624.0,30906933248.0,19320.0,634.0
24.435,7.803,67.762,0.0,0.0,0.0,776065024.0,154136576.0,1701126144.0,30904360960.0,19676.0,9138.0
42.690,1.754,55.556,0.0,0.0,0.0,775364608.0,154140672.0,1703473152.0,30902710272.0,18860.0,540.0
42.353,2.353,55.294,0.0,0.0,0.0,775225344.0,154140672.0,1705897984.0,30900424704.0,18916.0,856.0
40.361,1.807,57.831,0.0,0.0,0.0,775233536.0,154144768.0,1708298240.0,30898012160.0,17824.0,1130.0
26.316,7.692,65.182,0.810,0.0,0.0,775880704.0,154148864.0,1709834240.0,30895824896.0,18862.0,540.0
41.296,1.417,57.287,0.0,0.0,0.0,775720960.0,154152960.0,1712275456.0,30893539328.0,19076.0,540.0
38.923,1.656,59.420,0.0,0.0,0.0,775520256.0,154152960.0,1714634752.0,30891380736.0,18994.0,754.0
37.917,2.500,59.583,0.0,0.0,0.0,775254016.0,154157056.0,1717182464.0,30889095168.0,19934.0,754.0
26.939,6.327,66.735,0.0,0.0,0.0,775991296.0,154157056.0,1718730752.0,30886809600.0,19884.0,676.0
42.136,2.136,54.951,0.777,0.0,0.0,775708672.0,154165248.0,1721135104.0,30884679680.0,17916.0,952.0
41.247,1.811,56.942,0.0,0.0,0.0,775475200.0,154165248.0,1723654144.0,30882394112.0,17028.0,754.0
39.960,2.008,58.032,0.0,0.0,0.0,775487488.0,154169344.0,1726050304.0,30879981568.0,17496.0,754.0
24.638,6.625,68.737,0.0,0.0,0.0,776617984.0,154169344.0,1727459328.0,30877442048.0,16852.0,540.0
39.139,2.459,58.402,0.0,0.0,0.0,775979008.0,154173440.0,1729871872.0,30875664384.0,18812.0,540.0
41.061,2.358,55.599,0.786,0.0,0.196,775811072.0,154173440.0,1732292608.0,30873411584.0,18034.0,754.0
42.690,1.949,55.361,0.0,0.0,0.0,775819264.0,154177536.0,1734692864.0,30870999040.0,19185.0,848.0
24.536,6.598,68.660,0.0,0.0,0.206,776925184.0,154177536.0,1736126464.0,30868459520.0,19222.0,540.0
40.681,2.405,56.713,0.0,0.0,0.200,776347648.0,154177536.0,1738608640.0,30866554880.0,17672.0,8916.0
40.319,2.196,57.485,0.0,0.0,0.0,776581120.0,154181632.0,1741037568.0,30863888384.0,19978.0,754.0
41.188,1.980,55.842,0.990,0.0,0.0,776568832.0,154181632.0,1743466496.0,30861471744.0,18514.0,754.0
26.033,6.198,67.769,0.0,0.0,0.0,777392128.0,154185728.0,1744957440.0,30859153408.0,18992.0,540.0
39.588,1.237,58.969,0.0,0.0,0.206,777289728.0,154185728.0,1747472384.0,30856740864.0,20126.0,754.0
38.398,3.491,58.111,0.0,0.0,0.0,777138176.0,154189824.0,1749905408.0,30854455296.0,19648.0,634.0
40.0,2.200,57.600,0.0,0.0,0.200,776605696.0,154189824.0,1752309760.0,30852583424.0,18690.0,754.0
28.343,6.587,64.471,0.599,0.0,0.0,777625600.0,154198016.0,1753788416.0,30850076672.0,19498.0,634.0
40.568,1.420,58.012,0.0,0.0,0.0,777568256.0,154198016.0,1756258304.0,30847664128.0,19754.0,856.0
40.443,1.408,57.948,0.0,0.0,0.201,777175040.0,154202112.0,1758584832.0,30845726720.0,19492.0,1258.0
40.927,1.613,57.460,0.0,0.0,0.0,776892416.0,154202112.0,1761026048.0,30843568128.0,21228.0,754.0
27.146,7.585,65.269,0.0,0.0,0.0,777740288.0,154206208.0,1762586624.0,30841155584.0,20792.0,540.0
39.394,2.626,56.970,1.010,0.0,0.0,777879552.0,154214400.0,1764945920.0,30838648832.0,19834.0,754.0
40.040,1.811,58.149,0.0,0.0,0.0,777240576.0,154218496.0,1767358464.0,30836871168.0,19186.0,582.0
38.934,2.049,58.811,0.0,0.0,0.205,777154560.0,154218496.0,1769730048.0,30834585600.0,19266.0,754.0
27.984,7.436,64.579,0.0,0.0,0.0,778354688.0,154218496.0,1771180032.0,30831935488.0,19340.0,540.0
37.888,2.899,59.006,0.0,0.0,0.207,778137600.0,154222592.0,1773662208.0,30829666304.0,18967.0,9376.0
40.837,2.390,55.777,0.996,0.0,0.0,777469952.0,154230784.0,1776066560.0,30827921408.0,18962.0,540.0
41.765,2.157,56.078,0.0,0.0,0.0,777367552.0,154234880.0,1778483200.0,30825603072.0,19702.0,754.0
27.968,6.640,65.392,0.0,0.0,0.0,778166272.0,154234880.0,1779970048.0,30823317504.0,19806.0,540.0
41.414,1.212,57.374,0.0,0.0,0.0,777723904.0,154238976.0,1782407168.0,30821318656.0,18818.0,754.0
39.918,1.646,58.230,0.0,0.0,0.206,777535488.0,154238976.0,1785135104.0,30818779136.0,18978.0,890.0
39.184,2.857,56.939,1.020,0.0,0.0,777457664.0,154251264.0,1787551744.0,30816428032.0,19094.0,540.0
26.506,6.827,66.667,0.0,0.0,0.0,777900032.0,154251264.0,1788981248.0,30814556160.0,18038.0,540.0
39.337,2.277,58.385,0.0,0.0,0.0,777531392.0,154255360.0,1791377408.0,30812524544.0,19600.0,754.0
39.351,2.637,58.012,0.0,0.0,0.0,777375744.0,154255360.0,1793785856.0,30810271744.0,18444.0,754.0
40.491,1.636,57.669,0.0,0.0,0.204,777621504.0,154259456.0,1796108288.0,30807699456.0,19514.0,606.0
26.283,6.982,65.914,0.821,0.0,0.0,778190848.0,154263552.0,1797693440.0,30805540864.0,18606.0,540.0
40.719,1.996,57.285,0.0,0.0,0.0,778240000.0,154263552.0,1800056832.0,30803128320.0,19442.0,754.0
40.319,2.196,57.285,0.0,0.0,0.200,777850880.0,154267648.0,1802473472.0,30801096704.0,18878.0,848.0
39.759,2.209,58.032,0.0,0.0,0.0,777859072.0,154267648.0,1804783616.0,30798778368.0,17678.0,540.0
27.236,6.098,66.667,0.0,0.0,0.0,778829824.0,154271744.0,1806348288.0,30796238848.0,17936.0,642.0
40.650,1.626,56.911,0.813,0.0,0.0,778440704.0,154271744.0,1808830464.0,30794145792.0,18486.0,9608.0
38.413,2.088,59.499,0.0,0.0,0.0,778240000.0,154275840.0,1811312640.0,30791860224.0,18736.0,754.0
40.400,2.0,57.600,0.0,0.0,0.0,777953280.0,154275840.0,1813757952.0,30789701632.0,19436.0,540.0
27.364,6.439,66.197,0.0,0.0,0.0,778948608.0,154279936.0,1815203840.0,30787256320.0,17570.0,582.0
39.959,2.028,58.012,0.0,0.0,0.0,778375168.0,154279936.0,1817681920.0,30785351680.0,16112.0,848.0
39.634,2.033,57.520,0.813,0.0,0.0,778375168.0,154284032.0,1820151808.0,30782877696.0,15666.0,754.0
39.425,2.053,58.316,0.0,0.0,0.205,778207232.0,154284032.0,1822572544.0,30780624896.0,15648.0,848.0
27.218,6.855,65.927,0.0,0.0,0.0,790953984.0,154288128.0,1824079872.0,30766366720.0,16520.0,540.0
39.474,2.227,58.300,0.0,0.0,0.0,778899456.0,154288128.0,1826480128.0,30776020992.0,15678.0,540.0
40.918,2.595,56.487,0.0,0.0,0.0,778514432.0,154292224.0,1828892672.0,30773989376.0,17130.0,754.0
39.388,2.449,56.531,1.633,0.0,0.0,778485760.0,154292224.0,1831305216.0,30771605504.0,18348.0,754.0
29.435,5.645,64.919,0.0,0.0,0.0,912543744.0,154292224.0,1832927232.0,30635925504.0,19560.0,634.0
39.686,2.554,57.760,0.0,0.0,0.0,778371072.0,154296320.0,1835319296.0,30767702016.0,18530.0,540.0
40.204,1.633,58.163,0.0,0.0,0.0,778678272.0,154296320.0,1837678592.0,30765035520.0,18428.0,754.0
38.333,2.083,59.583,0.0,0.0,0.0,778461184.0,154300416.0,1840050176.0,30762876928.0,18372.0,754.0
32.742,4.734,61.736,0.789,0.0,0.0,950968320.0,154300416.0,1841782784.0,30588637184.0,18232.0,540.0
38.889,2.778,58.333,0.0,0.0,0.0,778665984.0,154304512.0,1843965952.0,30758752256.0,19144.0,8908.0
40.040,2.590,57.371,0.0,0.0,0.0,778911744.0,154304512.0,1846386688.0,30756085760.0,17074.0,754.0
40.040,2.012,57.948,0.0,0.0,0.0,778629120.0,154308608.0,1848823808.0,30753927168.0,18124.0,754.0
33.730,4.762,61.508,0.0,0.0,0.0,895909888.0,154308608.0,1850646528.0,30634823680.0,16696.0,540.0
35.329,4.591,59.481,0.599,0.0,0.0,779456512.0,154316800.0,1852624896.0,30749290496.0,16734.0,540.0
40.0,1.633,58.367,0.0,0.0,0.0,778907648.0,154316800.0,1855078400.0,30747385856.0,16540.0,754.0
41.700,1.976,56.126,0.0,0.0,0.198,779120640.0,154320896.0,1857560576.0,30744686592.0,17052.0,856.0
33.401,3.870,62.729,0.0,0.0,0.0,887599104.0,154320896.0,1859518464.0,30634250240.0,16350.0,916.0
34.455,5.347,60.198,0.0,0.0,0.0,779874304.0,154324992.0,1861468160.0,30740021248.0,16916.0,540.0
40.733,1.629,56.619,1.018,0.0,0.0,779665408.0,154329088.0,1863798784.0,30737895424.0,16832.0,796.0
39.040,1.670,59.290,0.0,0.0,0.0,779726848.0,154333184.0,1866272768.0,30735355904.0,16332.0,754.0
35.484,3.629,60.685,0.0,0.0,0.202,850640896.0,154333184.0,1868369920.0,30662344704.0,17398.0,634.0
30.691,5.285,64.024,0.0,0.0,0.0,780103680.0,154333184.0,1870118912.0,30731132928.0,17186.0,540.0
41.317,2.196,56.487,0.0,0.0,0.0,779784192.0,154337280.0,1872592896.0,30728974336.0,18560.0,754.0
39.175,2.268,57.938,0.619,0.0,0.0,779862016.0,154341376.0,1874956288.0,30726529024.0,17050.0,754.0
37.475,3.206,59.118,0.0,0.0,0.200,825217024.0,154345472.0,1877213184.0,30678913024.0,19174.0,540.0
28.831,7.056,64.113,0.0,0.0,0.0,780505088.0,154345472.0,1878847488.0,30721990656.0,18878.0,540.0
39.959,1.230,58.811,0.0,0.0,0.0,780165120.0,154349568.0,1881309184.0,30719864832.0,19284.0,9138.0
38.347,1.059,60.593,0.0,0.0,0.0,780267520.0,154349568.0,1883779072.0,30717292544.0,18250.0,754.0
38.632,2.616,57.746,1.006,0.0,0.0,825466880.0,154361856.0,1886056448.0,30669803520.0,18172.0,540.0
28.081,6.263,65.657,0.0,0.0,0.0,781262848.0,154361856.0,1887850496.0,30712213504.0,17768.0,754.0
41.165,1.807,57.028,0.0,0.0,0.0,780132352.0,154365952.0,1890246656.0,30710943744.0,18618.0,540.0
39.014,2.053,58.932,0.0,0.0,0.0,780247040.0,154365952.0,1892638720.0,30708436992.0,17970.0,848.0
36.307,2.697,60.996,0.0,0.0,0.0,823283712.0,154370048.0,1894928384.0,30663106560.0,18596.0,606.0
30.539,6.188,61.677,1.597,0.0,0.0,780607488.0,154378240.0,1896710144.0,30703992832.0,18622.0,754.0
40.688,1.215,57.895,0.0,0.0,0.202,780726272.0,154382336.0,1899126784.0,30701453312.0,22690.0,634.0
38.716,1.863,59.420,0.0,0.0,0.0,780431360.0,154382336.0,1901613056.0,30699261952.0,24072.0,754.0
38.632,2.012,59.356,0.0,0.0,0.0,809291776.0,154386432.0,1903857664.0,30668152832.0,23620.0,848.0
27.216,6.598,66.186,0.0,0.0,0.0,780902400.0,154386432.0,1905582080.0,30694817792.0,24102.0,540.0
40.726,2.621,55.444,1.210,0.0,0.0,780877824.0,154386432.0,1907924992.0,30692499456.0,22484.0,642.0
38.254,2.495,59.252,0.0,0.0,0.0,781070336.0,154390528.0,1910362112.0,30689865728.0,18008.0,1130.0
39.437,2.012,58.551,0.0,0.0,0.0,781025280.0,154390528.0,1912692736.0,30687580160.0,23402.0,754.0
28.400,7.800,63.800,0.0,0.0,0.0,782004224.0,154394624.0,1914281984.0,30685007872.0,23948.0,1088.0
42.436,1.179,56.385,0.0,0.0,0.0,781561856.0,154394624.0,1916628992.0,30683103232.0,20894.0,8900.0
38.716,1.863,57.971,1.449,0.0,0.0,781344768.0,154398720.0,1919045632.0,30680899584.0,21626.0,754.0
40.041,1.829,58.130,0.0,0.0,0.0,781262848.0,154398720.0,1921363968.0,30678663168.0,22062.0,754.0
27.856,7.214,64.930,0.0,0.0,0.0,781623296.0,154402816.0,1922936832.0,30676725760.0,17534.0,634.0
40.854,1.829,57.317,0.0,0.0,0.0,781398016.0,154402816.0,1925701632.0,30674186240.0,22922.0,796.0
40.283,1.417,58.097,0.0,0.0,0.202,781369344.0,154406912.0,1928138752.0,30671773696.0,23638.0,634.0
35.551,2.911,59.667,1.871,0.0,0.0,824598528.0,154411008.0,1930391552.0,30626287616.0,21184.0,754.0
29.065,5.894,65.041,0.0,0.0,0.0,781934592.0,154415104.0,1932070912.0,30667268096.0,21170.0,540.0
40.040,2.616,57.344,0.0,0.0,0.0,781541376.0,154415104.0,1934462976.0,30665269248.0,21352.0,754.0
42.270,2.153,55.577,0.0,0.0,0.0,781266944.0,154419200.0,1936891904.0,30663110656.0,16906.0,540.0
37.988,2.669,59.343,0.0,0.0,0.0,794021888.0,154419200.0,1939247104.0,30648000512.0,17168.0,754.0
28.261,7.115,64.032,0.593,0.0,0.0,781799424.0,154427392.0,1940766720.0,30658695168.0,18098.0,540.0
42.136,2.913,54.951,0.0,0.0,0.0,781500416.0,154431488.0,1943187456.0,30656569344.0,17174.0,848.0
38.589,1.867,59.544,0.0,0.0,0.0,781561856.0,154431488.0,1945538560.0,30654156800.0,18554.0,582.0
39.554,1.826,58.418,0.0,0.0,0.203,781508608.0,154435584.0,1947967488.0,30651777024.0,19911.0,754.0
26.721,6.883,66.397,0.0,0.0,0.0,781824000.0,154435584.0,1949589504.0,30649839616.0,17518.0,540.0
40.954,2.187,55.865,0.994,0.0,0.0,781619200.0,154439680.0,1952014336.0,30647615488.0,16682.0,9130.0
39.130,1.863,59.006,0.0,0.0,0.0,781307904.0,154439680.0,1954484224.0,30645456896.0,16916.0,848.0
38.413,1.253,60.334,0.0,0.0,0.0,781484032.0,154443776.0,1956843520.0,30642917376.0,15564.0,540.0
28.486,6.375,65.139,0.0,0.0,0.0,782065664.0,154443776.0,1958420480.0,30640758784.0,15016.0,736.0
38.831,1.461,59.708,0.0,0.0,0.0,782282752.0,154447872.0,1960865792.0,30638092288.0,17954.0,1232.0
39.673,2.249,57.260,0.818,0.0,0.0,781983744.0,154451968.0,1963253760.0,30635999232.0,17864.0,754.0
42.667,2.476,54.857,0.0,0.0,0.0,781492224.0,154456064.0,1965678592.0,30634061824.0,17618.0,634.0
27.160,6.173,66.667,0.0,0.0,0.0,781930496.0,154456064.0,1967271936.0,30632030208.0,18198.0,634.0
39.351,2.028,58.621,0.0,0.0,0.0,781709312.0,154460160.0,1969741824.0,30629777408.0,18314.0,754.0
38.413,1.670,59.916,0.0,0.0,0.0,781770752.0,154460160.0,1972219904.0,30627237888.0,16896.0,754.0
44.118,1.569,53.529,0.784,0.0,0.0,781565952.0,154468352.0,1974607872.0,30625046528.0,15948.0,540.0
25.971,6.748,67.280,0.0,0.0,0.0,782422016.0,154468352.0,1976291328.0,30622507008.0,15826.0,754.0
39.959,2.028,58.012,0.0,0.0,0.0,782245888.0,154468352.0,1978753024.0,30620221440.0,14618.0,540.0
39.113,2.218,58.468,0.0,0.0,0.202,782094336.0,154472448.0,1981186048.0,30617935872.0,14340.0,754.0
40.606,1.212,58.182,0.0,0.0,0.0,782315520.0,154472448.0,1983537152.0,30615363584.0,15122.0,754.0
24.477,7.322,67.573,0.628,0.0,0.0,782794752.0,154480640.0,1984987136.0,30613426176.0,16116.0,540.0
40.688,2.024,57.287,0.0,0.0,0.0,782254080.0,154480640.0,1987432448.0,30611521536.0,16324.0,8908.0
40.164,1.844,57.992,0.0,0.0,0.0,782098432.0,154484736.0,1989869568.0,30609235968.0,16810.0,754.0
40.122,2.240,57.637,0.0,0.0,0.0,782311424.0,154484736.0,1992323072.0,30606569472.0,17704.0,848.0
26.680,6.110,67.210,0.0,0.0,0.0,782946304.0,154488832.0,1993842688.0,30604410880.0,15628.0,582.0
38.413,1.670,58.873,0.835,0.0,0.209,782761984.0,154488832.0,1996247040.0,30602190848.0,14192.0,540.0
39.437,2.817,57.545,0.0,0.0,0.201,782577664.0,154492928.0,1998618624.0,30599999488.0,14557.0,754.0
37.578,1.670,60.543,0.0,0.0,0.209,782233600.0,154492928.0,2000994304.0,30597967872.0,13954.0,754.0
26.680,6.517,66.802,0.0,0.0,0.0,783540224.0,154492928.0,2002481152.0,30595174400.0,14950.0,540.0
38.589,2.075,59.336,0.0,0.0,0.0,783056896.0,154497024.0,2004865024.0,30593269760.0,16118.0,700.0
39.256,2.273,57.851,0.620,0.0,0.0,782925824.0,154505216.0,2007302144.0,30590955520.0,14804.0,848.0
40.121,2.419,57.460,0.0,0.0,0.0,782733312.0,154505216.0,2009780224.0,30588669952.0,15270.0,856.0
27.254,5.738,66.803,0.0,0.0,0.205,783298560.0,154505216.0,2011373568.0,30586511360.0,14452.0,982.0
38.912,1.674,59.205,0.0,0.0,0.209,782684160.0,154509312.0,2013728768.0,30584766464.0,13934.0,540.0
40.434,2.564,57.002,0.0,0.0,0.0,782659584.0,154509312.0,2016165888.0,30582353920.0,15122.0,838.0
41.331,1.815,56.048,0.806,0.0,0.0,783048704.0,154513408.0,2018631680.0,30579494912.0,13742.0,754.0
26.186,5.979,67.835,0.0,0.0,0.0,783122432.0,154513408.0,2020114432.0,30577938432.0,13352.0,672.0
37.344,2.075,60.373,0.0,0.0,0.207,783093760.0,154517504.0,2022551552.0,30575525888.0,14214.0,634.0
38.155,2.096,59.748,0.0,0.0,0.0,783310848.0,154517504.0,2025000960.0,30572859392.0,13436.0,9138.0
40.241,1.811,57.948,0.0,0.0,0.0,782946304.0,154521600.0,2027393024.0,30570827776.0,14212.0,754.0
27.733,6.073,65.182,0.810,0.0,0.202,784527360.0,154525696.0,2028953600.0,30567682048.0,13786.0,540.0
39.344,2.254,58.197,0.0,0.0,0.205,784375808.0,154529792.0,2031259648.0,30565523456.0,14048.0,540.0
40.661,2.918,56.420,0.0,0.0,0.0,783851520.0,154529792.0,2033688576.0,30563618816.0,13532.0,754.0
36.709,1.899,61.392,0.0,0.0,0.0,783765504.0,154533888.0,2036023296.0,30561366016.0,14520.0,754.0
28.0,6.400,65.600,0.0,0.0,0.0,784338944.0,154533888.0,2037514240.0,30559301632.0,13864.0,540.0
38.105,1.895,58.947,0.842,0.0,0.211,783986688.0,154542080.0,2039951360.0,30557208576.0,12790.0,540.0
40.631,2.367,57.002,0.0,0.0,0.0,783794176.0,154546176.0,2042425344.0,30554923008.0,12706.0,890.0
39.919,2.016,58.065,0.0,0.0,0.0,783728640.0,154550272.0,2044899328.0,30552510464.0,12550.0,754.0
28.081,6.667,65.253,0.0,0.0,0.0,783536128.0,154550272.0,2046488576.0,30551113728.0,13114.0,540.0
39.836,2.259,57.906,0.0,0.0,0.0,783474688.0,154550272.0,2049216512.0,30548447232.0,13444.0,848.0
40.918,2.196,56.088,0.798,0.0,0.0,783687680.0,154558464.0,2051567616.0,30545874944.0,14096.0,540.0
39.256,1.653,59.091,0.0,0.0,0.0,783757312.0,154558464.0,2054037504.0,30543335424.0,15058.0,754.0
26.025,6.967,67.008,0.0,0.0,0.0,784859136.0,154562560.0,2055503872.0,30540763136.0,15044.0,540.0
39.596,2.020,58.384,0.0,0.0,0.0,784269312.0,154562560.0,2057871360.0,30538985472.0,14946.0,754.0
41.365,1.004,57.631,0.0,0.0,0.0,784392192.0,154566656.0,2060283904.0,30536445952.0,15422.0,9018.0
38.776,0.816,58.367,2.041,0.0,0.0,784384000.0,154570752.0,2062540800.0,30534193152.0,15890.0,1130.0
27.181,6.897,65.923,0.0,0.0,0.0,784723968.0,154574848.0,2064101376.0,30532288512.0,16602.0,540.0
38.934,1.844,59.016,0.0,0.0,0.205,784560128.0,154574848.0,2066518016.0,30530035712.0,16110.0,754.0
38.017,2.273,59.711,0.0,0.0,0.0,784769024.0,154578944.0,2068844544.0,30527496192.0,14916.0,540.0
40.681,2.004,57.315,0.0,0.0,0.0,784601088.0,154578944.0,2071330816.0,30525177856.0,14198.0,754.0
28.024,6.048,65.121,0.806,0.0,0.0,785416192.0,154583040.0,2072920064.0,30522769408.0,15602.0,540.0
39.264,2.454,58.282,0.0,0.0,0.0,784830464.0,154587136.0,2075279360.0,30520991744.0,13858.0,754.0
37.342,2.110,60.549,0.0,0.0,0.0,784527360.0,154587136.0,2077741056.0,30518833152.0,14450.0,540.0
40.202,2.222,57.576,0.0,0.0,0.0,784134144.0,154591232.0,2080194560.0,30516768768.0,14024.0,754.0
29.365,5.754,64.881,0.0,0.0,0.0,785330176.0,154591232.0,2081792000.0,30513975296.0,16528.0,540.0
39.676,2.024,57.287,0.810,0.0,0.202,785207296.0,154599424.0,2084163584.0,30511718400.0,16618.0,848.0
39.248,1.879,58.873,0.0,0.0,0.0,784891904.0,154599424.0,2086510592.0,30509686784.0,16642.0,540.0
42.147,1.590,56.262,0.0,0.0,0.0,784642048.0,154603520.0,2089009152.0,30507433984.0,16378.0,754.0
24.896,6.224,68.880,0.0,0.0,0.0,785178624.0,154603520.0,2090504192.0,30505402368.0,16762.0,582.0
40.120,2.395,57.485,0.0,0.0,0.0,785002496.0,154607616.0,2092867584.0,30503211008.0,16242.0,754.0
39.076,1.471,57.983,1.471,0.0,0.0,784752640.0,154607616.0,2095243264.0,30501085184.0,16248.0,8924.0
38.542,2.083,59.375,0.0,0.0,0.0,784965632.0,154611712.0,2097692672.0,30498418688.0,16788.0,754.0
27.435,6.759,65.805,0.0,0.0,0.0,785813504.0,154611712.0,2099130368.0,30496133120.0,16070.0,540.0
43.353,1.927,54.721,0.0,0.0,0.0,785588224.0,154615808.0,2101637120.0,30493847552.0,16378.0,754.0
38.877,2.079,59.044,0.0,0.0,0.0,785297408.0,154615808.0,2104086528.0,30491688960.0,15374.0,754.0
35.608,2.772,60.554,1.066,0.0,0.0,785936384.0,154624000.0,2106425344.0,30488702976.0,15888.0,540.0
26.908,6.827,66.265,0.0,0.0,0.0,786636800.0,154624000.0,2107977728.0,30486450176.0,14952.0,540.0
37.553,2.532,59.916,0.0,0.0,0.0,786251776.0,154624000.0,2110394368.0,30484418560.0,14820.0,856.0
40.323,2.016,57.460,0.0,0.0,0.202,786034688.0,154628096.0,2112892928.0,30482132992.0,15942.0,1232.0
39.139,1.844,59.016,0.0,0.0,0.0,785584128.0,154628096.0,2115342336.0,30480134144.0,14712.0,540.0
25.352,7.042,65.795,1.610,0.0,0.201,787046400.0,154636288.0,2116759552.0,30477246464.0,14846.0,540.0
42.032,1.992,55.976,0.0,0.0,0.0,786427904.0,154636288.0,2119282688.0,30475341824.0,15083.0,754.0
39.463,1.653,58.884,0.0,0.0,0.0,786243584.0,154640384.0,2121748480.0,30473056256.0,15494.0,754.0
39.220,2.464,58.316,0.0,0.0,0.0,785829888.0,154640384.0,2124161024.0,30471057408.0,15564.0,540.0
27.677,6.263,66.061,0.0,0.0,0.0,786894848.0,154644480.0,2125758464.0,30468390912.0,15190.0,754.0
39.596,2.020,57.778,0.606,0.0,0.0,786481152.0,154648576.0,2128105472.0,30466453504.0,16234.0,540.0
39.095,1.852,59.053,0.0,0.0,0.0,786038784.0,154652672.0,2130575360.0,30464421888.0,15980.0,754.0
38.703,1.883,59.414,0.0,0.0,0.0,786104320.0,154652672.0,2133049344.0,30461882368.0,16138.0,9122.0
27.745,6.786,65.469,0.0,0.0,0.0,787464192.0,154656768.0,2134605824.0,30458961920.0,15438.0,634.0
40.711,2.372,56.917,0.0,0.0,0.0,787152896.0,154656768.0,2136948736.0,30456930304.0,14708.0,540.0
38.446,2.658,58.078,0.818,0.0,0.0,786722816.0,154660864.0,2139279360.0,30455025664.0,14540.0,754.0
42.520,1.969,55.512,0.0,0.0,0.0,786538496.0,154664960.0,2141745152.0,30452740096.0,13960.0,1005.0
27.655,6.212,66.132,0.0,0.0,0.0,787509248.0,154664960.0,2143346688.0,30450167808.0,14618.0,540.0
42.360,2.321,55.319,0.0,0.0,0.0,787091456.0,154669056.0,2145665024.0,30448263168.0,14056.0,540.0
39.794,1.443,58.763,0.0,0.0,0.0,786657280.0,154669056.0,2148130816.0,30446231552.0,15120.0,848.0
42.802,1.556,55.058,0.584,0.0,0.0,786915328.0,154681344.0,2150494208.0,30443597824.0,15796.0,754.0
28.455,5.285,66.260,0.0,0.0,0.0,959148032.0,154681344.0,2152091648.0,30269767680.0,16260.0,540.0
39.139,3.131,57.730,0.0,0.0,0.0,787353600.0,154685440.0,2154369024.0,30439280640.0,16802.0,540.0
38.923,2.277,58.592,0.0,0.0,0.207,787034112.0,154685440.0,2156847104.0,30437122048.0,15694.0,848.0
40.082,1.840,58.078,0.0,0.0,0.0,786788352.0,154689536.0,2159468544.0,30434742272.0,14966.0,754.0
27.510,6.426,66.064,0.0,0.0,0.0,841420800.0,154689536.0,2160967680.0,30378610688.0,15770.0,642.0
37.137,2.697,59.336,0.830,0.0,0.0,787701760.0,154697728.0,2163245056.0,30430044160.0,16106.0,916.0
39.588,2.887,57.526,0.0,0.0,0.0,787288064.0,154697728.0,2165817344.0,30427885568.0,15466.0,754.0
42.636,1.744,55.620,0.0,0.0,0.0,786944000.0,154701824.0,2168188928.0,30425853952.0,17010.0,9122.0
26.556,6.224,67.220,0.0,0.0,0.0,881111040.0,154701824.0,2169823232.0,30330052608.0,15164.0,540.0
39.645,2.959,57.199,0.0,0.0,0.197,787402752.0,154705920.0,2172170240.0,30421409792.0,15180.0,540.0
38.413,1.670,59.081,0.835,0.0,0.0,787402752.0,154710016.0,2174545920.0,30419030016.0,15796.0,754.0
41.0,2.0,57.0,0.0,0.0,0.0,787075072.0,154714112.0,2177028096.0,30416871424.0,16550.0,754.0
29.577,5.433,64.990,0.0,0.0,0.0,921141248.0,154714112.0,2178699264.0,30281134080.0,14260.0,540.0
38.788,2.424,58.788,0.0,0.0,0.0,787185664.0,154714112.0,2181042176.0,30412746752.0,14454.0,754.0
39.256,1.446,59.298,0.0,0.0,0.0,787333120.0,154718208.0,2183430144.0,30410207232.0,15206.0,540.0
40.121,3.024,56.452,0.403,0.0,0.0,787558400.0,154718208.0,2185904128.0,30407507968.0,15296.0,754.0
29.541,6.387,64.072,0.0,0.0,0.0,921575424.0,154722304.0,2187591680.0,30271799296.0,15874.0,634.0
36.253,4.073,59.674,0.0,0.0,0.0,787570688.0,154722304.0,2189856768.0,30403538944.0,16912.0,796.0
38.622,2.505,58.873,0.0,0.0,0.0,787816448.0,154726400.0,2192527360.0,30400618496.0,16262.0,540.0
38.923,1.863,58.799,0.414,0.0,0.0,787537920.0,154726400.0,2194964480.0,30398459904.0,16640.0,848.0
26.141,6.017,67.220,0.622,0.0,0.0,842444800.0,154734592.0,2196525056.0,30341984256.0,15506.0,540.0
40.200,3.200,56.600,0.0,0.0,0.0,788344832.0,154734592.0,2198945792.0,30393663488.0,14060.0,754.0
40.241,2.012,57.746,0.0,0.0,0.0,788152320.0,154738688.0,2201419776.0,30391377920.0,14196.0,754.0
39.879,2.227,57.895,0.0,0.0,0.0,787877888.0,154738688.0,2203885568.0,30389186560.0,13046.0,8916.0
28.049,5.894,66.057,0.0,0.0,0.0,788549632.0,154742784.0,2205495296.0,30386900992.0,12909.0,634.0
39.130,2.070,57.971,0.828,0.0,0.0,788054016.0,154750976.0,2207948800.0,30384934912.0,13902.0,848.0
39.457,1.461,59.081,0.0,0.0,0.0,787922944.0,154755072.0,2210361344.0,30382649344.0,14450.0,848.0
40.361,2.209,57.430,0.0,0.0,0.0,787628032.0,154755072.0,2212782080.0,30380523520.0,13314.0,736.0
29.225,6.163,64.612,0.0,0.0,0.0,842469376.0,154759168.0,2214379520.0,30324080640.0,13550.0,916.0
38.144,2.268,59.588,0.0,0.0,0.0,788267008.0,154759168.0,2216742912.0,30375919616.0,14326.0,754.0
37.526,2.887,58.969,0.619,0.0,0.0,788426752.0,154767360.0,2219081728.0,30373412864.0,14236.0,820.0
41.200,2.200,56.600,0.0,0.0,0.0,788393984.0,154767360.0,2221400064.0,30371127296.0,16678.0,540.0
32.460,4.435,63.105,0.0,0.0,0.0,932638720.0,154767360.0,2223337472.0,30224945152.0,16886.0,754.0
34.490,3.878,61.429,0.0,0.0,0.204,788930560.0,154771456.0,2225463296.0,30366523392.0,14594.0,540.0
40.202,1.818,57.980,0.0,0.0,0.0,788811776.0,154771456.0,2227867648.0,30364237824.0,16080.0,754.0
40.664,1.867,56.846,0.622,0.0,0.0,788787200.0,154779648.0,2230394880.0,30361726976.0,16020.0,540.0
34.510,4.510,60.980,0.0,0.0,0.0,934195200.0,154779648.0,2232246272.0,30214467584.0,15894.0,754.0
35.020,4.049,60.931,0.0,0.0,0.0,788787200.0,154783744.0,2234421248.0,30357696512.0,15678.0,540.0
42.430,1.394,56.175,0.0,0.0,0.0,788520960.0,154783744.0,2236878848.0,30355505152.0,15818.0,848.0
39.798,1.616,58.586,0.0,0.0,0.0,788750336.0,154787840.0,2239184896.0,30352965632.0,14438.0,9002.0
33.265,3.673,61.633,1.224,0.0,0.204,894005248.0,154796032.0,2241150976.0,30245736448.0,15980.0,848.0
35.984,3.976,60.040,0.0,0.0,0.0,789221376.0,154800128.0,2243207168.0,30348460032.0,16652.0,540.0
40.281,2.405,57.114,0.0,0.0,0.200,788828160.0,154800128.0,2245632000.0,30346428416.0,15890.0,848.0
39.264,1.636,59.100,0.0,0.0,0.0,788746240.0,154804224.0,2248122368.0,30344015872.0,14978.0,754.0
33.733,4.192,62.076,0.0,0.0,0.0,906248192.0,154804224.0,2250072064.0,30224564224.0,15434.0,540.0
34.677,4.234,60.282,0.806,0.0,0.0,789229568.0,154808320.0,2252046336.0,30339604480.0,15822.0,540.0
39.293,1.663,59.044,0.0,0.0,0.0,789229568.0,154808320.0,2254585856.0,30337064960.0,17926.0,820.0
39.634,2.033,58.333,0.0,0.0,0.0,788938752.0,154812416.0,2257031168.0,30334906368.0,17785.0,754.0
30.453,4.938,64.403,0.0,0.0,0.206,941637632.0,154812416.0,2258989056.0,30180249600.0,15512.0,540.0
34.615,4.453,60.324,0.405,0.0,0.202,789549056.0,154812416.0,2261118976.0,30330208256.0,17140.0,540.0
40.594,2.178,56.634,0.594,0.0,0.0,789295104.0,154816512.0,2263560192.0,30328016896.0,17360.0,856.0
41.532,1.613,56.855,0.0,0.0,0.0,789532672.0,154816512.0,2265989120.0,30325350400.0,15230.0,1130.0
32.869,4.582,62.351,0.0,0.0,0.199,940408832.0,154820608.0,2267893760.0,30172565504.0,19198.0,540.0
36.561,3.953,59.486,0.0,0.0,0.0,789856256.0,154820608.0,2270011392.0,30321000448.0,17864.0,754.0
38.716,2.484,58.799,0.0,0.0,0.0,789676032.0,154824704.0,2272473088.0,30318714880.0,16458.0,540.0
41.270,1.984,56.151,0.595,0.0,0.0,789848064.0,154824704.0,2274967552.0,30316048384.0,16542.0,9138.0
32.323,4.444,63.030,0.0,0.0,0.202,934019072.0,154828800.0,2276814848.0,30170025984.0,16824.0,634.0
34.930,4.990,60.080,0.0,0.0,0.0,789929984.0,154828800.0,2278944768.0,30311985152.0,15860.0,754.0
40.283,1.822,57.895,0.0,0.0,0.0,789676032.0,154832896.0,2281353216.0,30309826560.0,14964.0,540.0
38.809,2.259,58.932,0.0,0.0,0.0,789635072.0,154832896.0,2283728896.0,30307491840.0,16046.0,754.0
33.740,3.862,61.585,0.813,0.0,0.0,912592896.0,154845184.0,2285735936.0,30182514688.0,15704.0,540.0
32.510,4.733,62.551,0.0,0.0,0.206,790671360.0,154845184.0,2287697920.0,30302474240.0,16592.0,754.0
36.786,1.903,61.311,0.0,0.0,0.0,790409216.0,154849280.0,2290130944.0,30300299264.0,15368.0,540.0
39.754,1.844,58.402,0.0,0.0,0.0,790355968.0,154849280.0,2292596736.0,30297886720.0,15194.0,754.0
35.628,3.239,61.134,0.0,0.0,0.0,880361472.0,154853376.0,2294644736.0,30205829120.0,13834.0,540.0
31.579,5.668,61.741,1.012,0.0,0.0,790691840.0,154853376.0,2296541184.0,30293602304.0,15190.0,754.0
39.256,1.653,59.091,0.0,0.0,0.0,790896640.0,154853376.0,2298875904.0,30291062784.0,15886.0,540.0
38.912,1.464,59.623,0.0,0.0,0.0,790671360.0,154857472.0,2301304832.0,30288855040.0,16822.0,754.0
35.967,3.119,60.915,0.0,0.0,0.0,833314816.0,154857472.0,2303578112.0,30243938304.0,17030.0,848.0
31.0,5.600,63.400,0.0,0.0,0.0,791166976.0,154861568.0,2305310720.0,30284349440.0,14540.0,540.0
41.865,2.579,54.960,0.595,0.0,0.0,790872064.0,154861568.0,2307637248.0,30282317824.0,14828.0,540.0
40.927,1.613,57.460,0.0,0.0,0.0,790806528.0,154865664.0,2310111232.0,30279905280.0,15564.0,754.0
38.645,3.187,58.167,0.0,0.0,0.0,821477376.0,154865664.0,2312486912.0,30246858752.0,14484.0,9122.0
28.921,5.295,65.784,0.0,0.0,0.0,791322624.0,154869760.0,2314194944.0,30275301376.0,14684.0,642.0
40.954,1.988,57.058,0.0,0.0,0.0,791085056.0,154869760.0,2316607488.0,30273126400.0,14946.0,1018.0
39.718,3.226,56.452,0.605,0.0,0.0,791453696.0,154877952.0,2319073280.0,30270283776.0,15738.0,848.0
37.374,3.232,59.192,0.0,0.0,0.202,834633728.0,154877952.0,2321350656.0,30224826368.0,16462.0,796.0
30.862,5.411,63.727,0.0,0.0,0.0,791920640.0,154882048.0,2323046400.0,30265839616.0,15836.0,540.0
37.553,1.688,60.759,0.0,0.0,0.0,791977984.0,154882048.0,2325434368.0,30263394304.0,16488.0,754.0
40.562,2.410,56.627,0.402,0.0,0.0,791445504.0,154886144.0,2327834624.0,30261522432.0,16086.0,540.0
36.306,1.486,61.146,0.849,0.0,0.212,797016064.0,154890240.0,2330226688.0,30253555712.0,15894.0,754.0
26.694,6.366,66.940,0.0,0.0,0.0,791777280.0,154890240.0,2331783168.0,30257238016.0,15460.0,540.0
38.855,2.249,58.896,0.0,0.0,0.0,791453696.0,154894336.0,2334261248.0,30255079424.0,13804.0,754.0
40.486,2.024,57.490,0.0,0.0,0.0,791576576.0,154894336.0,2336677888.0,30252539904.0,14240.0,540.0
39.059,1.840,59.100,0.0,0.0,0.0,791920640.0,154898432.0,2339123200.0,30249746432.0,14038.0,754.0
26.680,6.925,65.580,0.815,0.0,0.0,792166400.0,154902528.0,2340651008.0,30247968768.0,14236.0,540.0
38.025,1.681,60.294,0.0,0.0,0.0,791642112.0,154906624.0,2343075840.0,30246064128.0,14598.0,754.0
40.882,2.405,56.713,0.0,0.0,0.0,791388160.0,154906624.0,2345521152.0,30243872768.0,14452.0,540.0
39.712,1.235,59.053,0.0,0.0,0.0,791523328.0,154910720.0,2347921408.0,30241333248.0,15770.0,9224.0
28.988,6.226,64.786,0.0,0.0,0.0,792223744.0,154910720.0,2349379584.0,30239174656.0,13738.0,540.0
42.270,1.957,55.186,0.587,0.0,0.0,792084480.0,154918912.0,2351730688.0,30236954624.0,15068.0,754.0
36.952,2.505,60.543,0.0,0.0,0.0,791797760.0,154918912.0,2354065408.0,30234906624.0,15016.0,540.0
39.959,2.049,57.992,0.0,0.0,0.0,791756800.0,154923008.0,2356514816.0,30232494080.0,15376.0,754.0
25.813,6.707,67.480,0.0,0.0,0.0,792592384.0,154923008.0,2357932032.0,30230241280.0,14272.0,540.0
43.619,1.714,54.667,0.0,0.0,0.0,792338432.0,154927104.0,2360373248.0,30228049920.0,14747.0,754.0
41.884,1.804,55.511,0.802,0.0,0.0,792035328.0,154931200.0,2362818560.0,30225903616.0,14338.0,540.0
39.148,1.623,59.026,0.0,0.0,0.203,792211456.0,154935296.0,2365288448.0,30223253504.0,13516.0,856.0
27.183,7.143,65.675,0.0,0.0,0.0,793038848.0,154935296.0,2366746624.0,30220967936.0,13426.0,1018.0
40.755,2.187,57.058,0.0,0.0,0.0,792772608.0,154935296.0,2369171456.0,30218809344.0,14378.0,848.0
40.122,1.426,58.452,0.0,0.0,0.0,792670208.0,154939392.0,2371555328.0,30216523776.0,15312.0,540.0
39.754,2.254,57.377,0.615,0.0,0.0,792875008.0,154943488.0,2374045696.0,30213824512.0,14704.0,754.0
26.210,7.460,66.331,0.0,0.0,0.0,793575424.0,154947584.0,2375532544.0,30211633152.0,14474.0,634.0
40.202,2.020,57.778,0.0,0.0,0.0,793210880.0,154947584.0,2377928704.0,30209601536.0,14504.0,754.0
40.323,2.016,57.661,0.0,0.0,0.0,793206784.0,154951680.0,2380308480.0,30207221760.0,14922.0,540.0
39.474,2.429,58.097,0.0,0.0,0.0,793055232.0,154951680.0,2382778368.0,30204903424.0,14404.0,754.0
24.742,7.423,66.392,1.443,0.0,0.0,793948160.0,154959872.0,2384289792.0,30202490880.0,14056.0,8916.0
38.477,3.086,58.436,0.0,0.0,0.0,793427968.0,154959872.0,2386714624.0,30200586240.0,14030.0,754.0
39.511,1.629,58.859,0.0,0.0,0.0,793096192.0,154963968.0,2389073920.0,30198554624.0,14758.0,540.0
40.644,1.811,57.545,0.0,0.0,0.0,793067520.0,154963968.0,2391515136.0,30196142080.0,14522.0,754.0
25.155,7.629,67.216,0.0,0.0,0.0,794152960.0,154963968.0,2393096192.0,30193475584.0,13786.0,540.0
33.745,1.852,58.230,6.173,0.0,0.0,793776128.0,154968064.0,2395136000.0,30191808512.0,13546.0,540.0
39.754,1.639,58.607,0.0,0.0,0.0,793292800.0,154968064.0,2397523968.0,30189903872.0,15224.0,754.0
40.0,2.020,57.778,0.0,0.0,0.202,793391104.0,154972160.0,2399961088.0,30187364352.0,13918.0,754.0
26.283,6.571,67.146,0.0,0.0,0.0,848207872.0,154972160.0,2401460224.0,30131048448.0,15948.0,606.0
41.026,2.170,56.805,0.0,0.0,0.0,793956352.0,154976256.0,2403868672.0,30182887424.0,16622.0,540.0
40.974,1.826,56.592,0.609,0.0,0.0,794116096.0,154984448.0,2406350848.0,30180237312.0,17090.0,848.0
38.763,2.062,59.175,0.0,0.0,0.0,793812992.0,154988544.0,2408808448.0,30178078720.0,16484.0,820.0
27.291,6.110,66.599,0.0,0.0,0.0,848429056.0,154988544.0,2410348544.0,30121922560.0,15812.0,540.0
38.095,2.277,59.627,0.0,0.0,0.0,794152960.0,154992640.0,2412703744.0,30173839360.0,15638.0,624.0
40.974,1.014,58.012,0.0,0.0,0.0,794165248.0,154992640.0,2415120384.0,30171410432.0,16724.0,950.0
39.718,2.419,57.056,0.806,0.0,0.0,794292224.0,155004928.0,2417553408.0,30168838144.0,16322.0,1262.0
29.058,6.613,64.329,0.0,0.0,0.0,888303616.0,155004928.0,2419224576.0,30073155584.0,15468.0,8958.0
38.540,1.826,59.432,0.0,0.0,0.203,794570752.0,155009024.0,2421493760.0,30164615168.0,15858.0,754.0
40.162,2.434,57.404,0.0,0.0,0.0,794300416.0,155009024.0,2423939072.0,30162440192.0,14330.0,634.0
39.468,2.045,58.487,0.0,0.0,0.0,794357760.0,155013120.0,2426417152.0,30159900672.0,14338.0,754.0
30.0,5.600,64.400,0.0,0.0,0.0,928759808.0,155013120.0,2428096512.0,30023819264.0,13174.0,634.0
39.020,3.529,56.471,0.980,0.0,0.0,795348992.0,155017216.0,2430345216.0,30154977280.0,12498.0,754.0
39.712,2.263,58.025,0.0,0.0,0.0,795070464.0,155021312.0,2432872448.0,30152724480.0,13429.0,794.0
39.381,1.856,58.763,0.0,0.0,0.0,795131904.0,155021312.0,2435383296.0,30150152192.0,13760.0,754.0
28.340,5.668,65.789,0.0,0.0,0.202,929411072.0,155025408.0,2436980736.0,30014271488.0,13900.0,540.0
36.100,3.527,60.373,0.0,0.0,0.0,795348992.0,155025408.0,2439274496.0,30146039808.0,15407.0,754.0
40.404,2.424,56.364,0.808,0.0,0.0,795373568.0,155029504.0,2441785344.0,30143500288.0,16494.0,540.0
41.750,1.392,56.859,0.0,0.0,0.0,795181056.0,155029504.0,2444169216.0,30141308928.0,14736.0,754.0
28.630,5.317,66.053,0.0,0.0,0.0,929177600.0,155033600.0,2445869056.0,30005608448.0,14534.0,540.0
38.289,2.444,59.267,0.0,0.0,0.0,795508736.0,155033600.0,2448093184.0,30137053184.0,13236.0,754.0
37.787,2.088,60.125,0.0,0.0,0.0,795439104.0,155037696.0,2450444288.0,30134767616.0,14066.0,540.0
39.463,1.860,58.058,0.620,0.0,0.0,795586560.0,155037696.0,2452885504.0,30132178944.0,13258.0,754.0
33.858,4.921,61.220,0.0,0.0,0.0,915869696.0,155041792.0,2454749184.0,30010028032.0,13080.0,634.0
33.667,4.810,61.523,0.0,0.0,0.0,796340224.0,155041792.0,2456825856.0,30127480832.0,13514.0,9114.0
40.800,2.200,56.800,0.0,0.0,0.200,796082176.0,155045888.0,2459271168.0,30125289472.0,12694.0,848.0
37.681,3.313,58.592,0.414,0.0,0.0,795795456.0,155045888.0,2461716480.0,30123130880.0,12574.0,540.0
32.922,4.321,62.346,0.412,0.0,0.0,902393856.0,155054080.0,2463707136.0,30014533632.0,13894.0,754.0
32.041,4.490,63.265,0.0,0.0,0.204,796106752.0,155058176.0,2465665024.0,30118858752.0,14440.0,642.0
40.249,0.830,58.714,0.0,0.0,0.207,795983872.0,155058176.0,2468073472.0,30116573184.0,13932.0,1232.0
39.638,2.414,57.948,0.0,0.0,0.0,795967488.0,155062272.0,2470658048.0,30114000896.0,13649.0,540.0
31.622,4.723,63.655,0.0,0.0,0.0,938905600.0,155062272.0,2472599552.0,29969121280.0,12946.0,754.0
35.857,4.183,59.363,0.598,0.0,0.0,796893184.0,155070464.0,2474741760.0,30108983296.0,14198.0,540.0
39.549,1.639,58.811,0.0,0.0,0.0,796856320.0,155070464.0,2477223936.0,30106537984.0,14485.0,848.0
40.365,2.028,57.606,0.0,0.0,0.0,796901376.0,155074560.0,2479714304.0,30103998464.0,15502.0,848.0
30.707,5.051,64.242,0.0,0.0,0.0,969572352.0,155074560.0,2481508352.0,29929533440.0,15640.0,540.0
35.950,3.512,60.537,0.0,0.0,0.0,796971008.0,155078656.0,2483703808.0,30099935232.0,15852.0,540.0
40.122,1.833,57.026,1.018,0.0,0.0,797085696.0,155086848.0,2486247424.0,30097268736.0,15162.0,754.0
39.879,1.619,58.502,0.0,0.0,0.0,797077504.0,155090944.0,2488602624.0,30094917632.0,14978.0,848.0
29.724,3.822,66.454,0.0,0.0,0.0,938369024.0,155090944.0,2490413056.0,29951815680.0,16076.0,540.0
35.510,3.673,60.816,0.0,0.0,0.0,797753344.0,155095040.0,2492653568.0,30090186752.0,16165.0,8924.0
41.468,2.183,56.349,0.0,0.0,0.0,797122560.0,155095040.0,2495156224.0,30088314880.0,17012.0,754.0
37.234,2.766,58.936,1.064,0.0,0.0,796979200.0,155103232.0,2497622016.0,30085984256.0,15780.0,754.0
29.098,5.123,65.779,0.0,0.0,0.0,970031104.0,155103232.0,2499321856.0,29911232512.0,15500.0,634.0
37.626,3.622,58.753,0.0,0.0,0.0,798224384.0,155107328.0,2501611520.0,30080745472.0,14606.0,754.0
41.765,2.157,56.078,0.0,0.0,0.0,797523968.0,155107328.0,2504011776.0,30079045632.0,16532.0,540.0
44.737,1.880,53.383,0.0,0.0,0.0,797528064.0,155111424.0,2506399744.0,30076649472.0,15868.0,754.0
30.957,5.092,63.340,0.611,0.0,0.0,942485504.0,155111424.0,2508230656.0,29929861120.0,16062.0,540.0
33.056,3.742,62.994,0.0,0.0,0.208,798318592.0,155111424.0,2510344192.0,30071914496.0,16114.0,754.0
40.927,1.613,57.460,0.0,0.0,0.0,798007296.0,155115520.0,2512683008.0,30069882880.0,15910.0,540.0
39.388,2.041,58.571,0.0,0.0,0.0,797880320.0,155115520.0,2515128320.0,30067564544.0,14718.0,754.0
34.980,4.545,60.474,0.0,0.0,0.0,890982400.0,155119616.0,2517127168.0,29972459520.0,15650.0,642.0
32.049,4.868,62.272,0.811,0.0,0.0,798912512.0,155123712.0,2519011328.0,30062641152.0,17100.0,1060.0
40.241,1.610,57.746,0.0,0.0,0.402,798806016.0,155127808.0,2521399296.0,30060355584.0,17102.0,754.0
40.400,2.200,57.400,0.0,0.0,0.0,798720000.0,155127808.0,2523770880.0,30058070016.0,16100.0,754.0
35.318,3.901,60.575,0.0,0.0,0.205,852619264.0,155131904.0,2526023680.0,30001913856.0,16372.0,540.0
30.382,5.231,63.783,0.402,0.0,0.201,798707712.0,155131904.0,2527748096.0,30054100992.0,17050.0,8916.0
37.263,2.316,60.211,0.211,0.0,0.0,798515200.0,155140096.0,2530217984.0,30051815424.0,17602.0,754.0
39.676,2.429,57.895,0.0,0.0,0.0,798302208.0,155140096.0,2532716544.0,30049529856.0,16850.0,848.0
37.773,3.181,58.847,0.0,0.0,0.199,844898304.0,155144192.0,2534907904.0,30000738304.0,17526.0,540.0
29.757,5.668,64.575,0.0,0.0,0.0,799318016.0,155144192.0,2536554496.0,30044672000.0,17186.0,754.0
40.040,2.414,57.344,0.0,0.0,0.201,798785536.0,155144192.0,2539024384.0,30042734592.0,15630.0,540.0
39.715,1.833,57.434,1.018,0.0,0.0,799043584.0,155152384.0,2541490176.0,30040002560.0,16500.0,754.0
38.008,3.049,58.740,0.0,0.0,0.203,806109184.0,155156480.0,2543849472.0,30030573568.0,15264.0,820.0
26.176,6.953,66.667,0.0,0.0,0.204,800010240.0,155156480.0,2545426432.0,30035095552.0,14244.0,540.0
38.716,2.070,59.213,0.0,0.0,0.0,799387648.0,155156480.0,2547826688.0,30033317888.0,14392.0,540.0
42.969,1.562,55.469,0.0,0.0,0.0,799322112.0,155160576.0,2550317056.0,30030888960.0,15236.0,754.0
39.308,1.833,58.248,0.407,0.0,0.204,799449088.0,155168768.0,2552688640.0,30028382208.0,15316.0,848.0
27.600,7.0,65.400,0.0,0.0,0.0,800026624.0,155172864.0,2554392576.0,30026096640.0,16414.0,540.0
41.532,1.613,56.855,0.0,0.0,0.0,799563776.0,155172864.0,2556919808.0,30024032256.0,16690.0,848.0
38.095,2.484,59.420,0.0,0.0,0.0,799391744.0,155176960.0,2559373312.0,30021746688.0,15380.0,540.0
36.626,2.881,60.494,0.0,0.0,0.0,840986624.0,155176960.0,2561617920.0,29977907200.0,15446.0,754.0
27.066,6.405,65.702,0.826,0.0,0.0,800075776.0,155185152.0,2563284992.0,30017142784.0,14090.0,8916.0
38.086,2.648,59.063,0.0,0.0,0.204,799952896.0,155185152.0,2565615616.0,30014935040.0,12728.0,848.0
37.393,1.496,61.111,0.0,0.0,0.0,799703040.0,155189248.0,2568019968.0,30012776448.0,12880.0,642.0
39.558,2.410,58.032,0.0,0.0,0.0,799584256.0,155189248.0,2570457088.0,30010458112.0,13838.0,1130.0
28.138,6.275,65.587,0.0,0.0,0.0,800808960.0,155193344.0,2572054528.0,30007631872.0,15196.0,634.0
39.879,2.024,57.287,0.810,0.0,0.0,800370688.0,155197440.0,2574536704.0,30005583872.0,16294.0,754.0
40.162,1.826,58.012,0.0,0.0,0.0,800280576.0,155201536.0,2576957440.0,30003249152.0,16440.0,634.0
39.394,2.222,58.384,0.0,0.0,0.0,800194560.0,155201536.0,2579345408.0,30000947200.0,17226.0,754.0
25.761,7.099,67.140,0.0,0.0,0.0,800718848.0,155201536.0,2580885504.0,29998882816.0,16296.0,540.0
38.604,2.464,58.727,0.0,0.0,0.205,800440320.0,155205632.0,2583318528.0,29996724224.0,15954.0,754.0
39.431,1.829,57.927,0.813,0.0,0.0,800153600.0,155209728.0,2585694208.0,29994631168.0,16336.0,540.0
40.162,1.217,58.621,0.0,0.0,0.0,800317440.0,155213824.0,2588065792.0,29992091648.0,16720.0,754.0
27.455,6.814,65.731,0.0,0.0,0.0,800722944.0,155213824.0,2589564928.0,29990187008.0,17122.0,540.0
40.200,2.600,57.200,0.0,0.0,0.0,800694272.0,155217920.0,2592034816.0,29987741696.0,17028.0,848.0
39.592,1.633,58.776,0.0,0.0,0.0,800575488.0,155217920.0,2594455552.0,29985439744.0,15268.0,540.0
40.080,2.605,56.313,1.002,0.0,0.0,800509952.0,155222016.0,2596839424.0,29983117312.0,17874.0,754.0
25.0,6.967,67.828,0.0,0.0,0.205,801402880.0,155222016.0,2598342656.0,29980721152.0,16194.0,540.0
41.833,1.992,56.175,0.0,0.0,0.0,800739328.0,155226112.0,2600939520.0,29978783744.0,15391.0,9138.0
39.634,2.846,57.520,0.0,0.0,0.0,800526336.0,155226112.0,2603405312.0,29976530944.0,14798.0,634.0
38.877,2.079,58.836,0.208,0.0,0.0,800817152.0,155230208.0,2605776896.0,29973864448.0,15242.0,754.0
25.466,6.625,67.495,0.414,0.0,0.0,800677888.0,155234304.0,2607374336.0,29972402176.0,14212.0,952.0
38.445,1.891,59.664,0.0,0.0,0.0,800514048.0,155238400.0,2609819648.0,29970116608.0,14440.0,848.0
37.996,2.505,59.499,0.0,0.0,0.0,800567296.0,155238400.0,2612244480.0,29967638528.0,15078.0,848.0
39.139,1.844,59.016,0.0,0.0,0.0,800710656.0,155242496.0,2614652928.0,29965082624.0,15462.0,540.0
24.948,7.216,67.835,0.0,0.0,0.0,801202176.0,155242496.0,2616225792.0,29963018240.0,14742.0,540.0
41.929,1.772,55.315,0.787,0.0,0.197,801460224.0,155250688.0,2618687488.0,29960290304.0,16338.0,856.0
38.557,2.474,58.969,0.0,0.0,0.0,801341440.0,155254784.0,2621120512.0,29957971968.0,16062.0,1232.0
39.158,1.263,59.579,0.0,0.0,0.0,801292288.0,155254784.0,2623614976.0,29955526656.0,16252.0,634.0
26.707,6.827,66.466,0.0,0.0,0.0,802091008.0,155258880.0,2625064960.0,29953273856.0,16238.0,540.0
40.524,1.815,57.460,0.0,0.0,0.202,802000896.0,155258880.0,2627473408.0,29950955520.0,15672.0,754.0
40.954,1.789,56.461,0.795,0.0,0.0,801521664.0,155271168.0,2629812224.0,29949083648.0,14802.0,848.0
38.382,2.282,59.336,0.0,0.0,0.0,801488896.0,155271168.0,2632179712.0,29946748928.0,14580.0,540.0
26.626,7.114,66.260,0.0,0.0,0.0,802181120.0,155275264.0,2633768960.0,29944463360.0,15530.0,634.0
38.589,1.867,59.544,0.0,0.0,0.0,801804288.0,155275264.0,2636193792.0,29942415360.0,14700.0,9130.0
39.959,1.434,58.607,0.0,0.0,0.0,801648640.0,155279360.0,2638630912.0,29940129792.0,13596.0,848.0
39.425,1.643,57.906,1.027,0.0,0.0,801927168.0,155283456.0,2641252352.0,29937225728.0,12942.0,754.0
27.888,6.773,65.339,0.0,0.0,0.0,802172928.0,155287552.0,2642780160.0,29935448064.0,12952.0,634.0
42.802,2.111,54.894,0.0,0.0,0.192,801677312.0,155287552.0,2645180416.0,29933543424.0,14152.0,994.0
41.257,2.554,56.189,0.0,0.0,0.0,801390592.0,155291648.0,2647621632.0,29931384832.0,12482.0,754.0
41.765,1.961,56.275,0.0,0.0,0.0,801800192.0,155291648.0,2650021888.0,29928574976.0,13242.0,754.0
26.680,6.517,65.988,0.815,0.0,0.0,802729984.0,155291648.0,2651537408.0,29926129664.0,13934.0,540.0
38.980,2.449,58.367,0.0,0.0,0.204,802385920.0,155295744.0,2653908992.0,29924098048.0,13578.0,540.0
40.040,1.811,58.149,0.0,0.0,0.0,802443264.0,155295744.0,2656264192.0,29921685504.0,13772.0,754.0
38.589,1.867,59.544,0.0,0.0,0.0,802549760.0,155299840.0,2658693120.0,29919145984.0,14020.0,754.0
32.514,5.482,62.004,0.0,0.0,0.0,803000320.0,155299840.0,2660274176.0,29917114368.0,13494.0,540.0
37.815,2.101,59.034,1.050,0.0,0.0,802672640.0,155308032.0,2662612992.0,29915095040.0,14336.0,540.0
40.808,1.212,57.980,0.0,0.0,0.0,802848768.0,155308032.0,2664992768.0,29912539136.0,14254.0,754.0
40.162,1.217,58.621,0.0,0.0,0.0,802611200.0,155312128.0,2667401216.0,29910364160.0,14226.0,540.0
25.911,7.287,66.802,0.0,0.0,0.0,803160064.0,155312128.0,2668883968.0,29908332544.0,14358.0,856.0
39.095,1.440,58.642,0.617,0.0,0.206,802828288.0,155316224.0,2671259648.0,29906284544.0,13622.0,9994.0
41.980,1.980,55.842,0.198,0.0,0.0,803012608.0,155320320.0,2673737728.0,29903618048.0,13584.0,754.0
40.040,2.414,57.545,0.0,0.0,0.0,802971648.0,155324416.0,2676060160.0,29901332480.0,13222.0,540.0
29.550,6.458,63.992,0.0,0.0,0.0,803753984.0,155324416.0,2677657600.0,29898952704.0,13728.0,754.0
41.304,2.174,56.522,0.0,0.0,0.0,803291136.0,155324416.0,2680025088.0,29897048064.0,14260.0,634.0
41.188,1.584,57.228,0.0,0.0,0.0,803237888.0,155328512.0,2682503168.0,29894619136.0,14196.0,754.0
40.606,1.616,56.768,1.010,0.0,0.0,802926592.0,155336704.0,2684866560.0,29892558848.0,15452.0,540.0
28.175,6.548,65.278,0.0,0.0,0.0,804245504.0,155340800.0,2686369792.0,29889732608.0,15786.0,540.0
38.430,2.273,59.298,0.0,0.0,0.0,804102144.0,155340800.0,2688798720.0,29887447040.0,15290.0,754.0
38.669,1.871,59.459,0.0,0.0,0.0,803479552.0,155344896.0,2691321856.0,29885542400.0,15784.0,754.0
42.292,1.186,56.522,0.0,0.0,0.0,803168256.0,155344896.0,2693664768.0,29883510784.0,16498.0,540.0
27.621,6.855,64.315,1.210,0.0,0.0,804012032.0,155353088.0,2695274496.0,29881049088.0,16554.0,754.0
42.231,0.996,56.773,0.0,0.0,0.0,803565568.0,155353088.0,2697625600.0,29879144448.0,15768.0,540.0
41.188,1.782,57.030,0.0,0.0,0.0,803659776.0,155357184.0,2700066816.0,29876604928.0,16008.0,754.0
40.365,1.420,58.215,0.0,0.0,0.0,803901440.0,155357184.0,2702381056.0,29874049024.0,66762.0,540.0
30.588,6.667,62.745,0.0,0.0,0.0,937926656.0,155361280.0,2704044032.0,29738356736.0,51698.0,754.0
40.535,3.633,55.258,0.574,0.0,0.0,808083456.0,155361280.0,2706345984.0,29865897984.0,49244.0,540.0
39.919,2.218,57.661,0.202,0.0,0.0,804179968.0,155365376.0,2708697088.0,29867446272.0,52186.0,9224.0
40.800,1.400,57.600,0.0,0.0,0.200,803782656.0,155365376.0,2711015424.0,29865525248.0,20928.0,952.0
33.939,4.040,62.020,0.0,0.0,0.0,913936384.0,155365376.0,2712965120.0,29753421824.0,13304.0,1472.0
32.790,4.684,62.525,0.0,0.0,0.0,804814848.0,155369472.0,2714914816.0,29860589568.0,13890.0,540.0
39.554,2.231,57.809,0.406,0.0,0.0,808292352.0,155369472.0,2717298688.0,29854728192.0,15338.0,754.0
25.657,5.657,68.283,0.404,0.0,0.0,327270400.0,155381760.0,2718588928.0,30334447616.0,16348.0,4597.0
0.0,0.0,100.0,0.0,0.0,0.0,327254016.0,155381760.0,2718588928.0,30334464000.0,15864.0,702.0
0.0,0.0,100.0,0.0,0.0,0.0,327254016.0,155381760.0,2718588928.0,30334464000.0,16094.0,326.0
0.0,0.0,100.0,0.0,0.0,0.0,327000064.0,155381760.0,2718588928.0,30334717952.0,16802.0,326.0
0.0,0.0,100.0,0.0,0.0,0.0,327000064.0,155381760.0,2718588928.0,30334717952.0,15522.0,326.0
0.0,0.0,99.598,0.402,0.0,0.0,326963200.0,155385856.0,2718588928.0,30334750720.0,14572.0,326.0
0.0,0.0,100.0,0.0,0.0,0.0,326963200.0,155385856.0,2718588928.0,30334750720.0,15244.0,326.0
0.0,0.0,100.0,0.0,0.0,0.0,326963200.0,155385856.0,2718588928.0,30334750720.0,13202.0,326.0
0.0,0.0,100.0,0.0,0.0,0.0,326959104.0,155385856.0,2718593024.0,30334750720.0,13168.0,326.0
0.0,0.0,100.0,0.0,0.0,0.0,326959104.0,155385856.0,2718593024.0,30334750720.0,12330.0,326.0
0.0,0.0,100.0,0.0,0.0,0.0,326959104.0,155385856.0,2718593024.0,30334750720.0,13644.0,978.0
0.0,0.0,99.799,0.201,0.0,0.0,326799360.0,155394048.0,2718593024.0,30334902272.0,14494.0,326.0
0.0,0.0,100.0,0.0,0.0,0.0,326918144.0,155394048.0,2718593024.0,30334783488.0,14062.0,326.0
0.0,0.0,100.0,0.0,0.0,0.0,326950912.0,155394048.0,2718593024.0,30334750720.0,15680.0,326.0
0.0,0.0,100.0,0.0,0.0,0.0,326725632.0,155394048.0,2718593024.0,30334976000.0,15612.0,326.0
0.0,0.0,100.0,0.0,0.0,0.0,326823936.0,155394048.0,2718593024.0,30334877696.0,15902.0,326.0
0.0,0.0,100.0,0.0,0.0,0.0,326791168.0,155394048.0,2718593024.0,30334910464.0,14722.0,326.0
0.0,0.0,99.599,0.401,0.0,0.0,326787072.0,155398144.0,2718593024.0,30334910464.0,13530.0,326.0
0.0,0.0,100.0,0.0,0.0,0.0,326787072.0,155398144.0,2718593024.0,30334910464.0,12786.0,326.0
0.0,0.0,100.0,0.0,0.0,0.0,326787072.0,155398144.0,2718593024.0,30334910464.0,12790.0,326.0
0.0,0.0,100.0,0.0,0.0,0.0,326787072.0,155398144.0,2718593024.0,30334910464.0,13598.0,326.0
0.0,0.0,100.0,0.0,0.0,0.0,326787072.0,155398144.0,2718593024.0,30334910464.0,12976.0,326.0
0.0,0.0,100.0,0.0,0.0,0.0,326787072.0,155398144.0,2718593024.0,30334910464.0,11864.0,326.0
0.0,0.0,99.800,0.200,0.0,0.0,326811648.0,155406336.0,2718593024.0,30334877696.0,12656.0,428.0
0.0,0.0,100.0,0.0,0.0,0.0,326811648.0,155406336.0,2718593024.0,30334877696.0,13546.0,702.0
0.0,0.0,100.0,0.0,0.0,0.0,326811648.0,155406336.0,2718593024.0,30334877696.0,13252.0,326.0
0.0,0.0,100.0,0.0,0.0,0.0,326778880.0,155406336.0,2718593024.0,30334910464.0,14982.0,326.0
0.0,0.0,100.0,0.0,0.0,0.0,326778880.0,155406336.0,2718593024.0,30334910464.0,13458.0,326.0
0.0,0.0,100.0,0.0,0.0,0.0,326778880.0,155406336.0,2718593024.0,30334910464.0,14112.0,326.0
0.0,0.0,99.800,0.200,0.0,0.0,326770688.0,155414528.0,2718593024.0,30334910464.0,12982.0,326.0
0.0,0.0,100.0,0.0,0.0,0.0,326770688.0,155414528.0,2718593024.0,30334910464.0,13356.0,326.0
0.0,0.0,100.0,0.0,0.0,0.0,326770688.0,155414528.0,2718593024.0,30334910464.0,13160.0,326.0
0.0,0.0,100.0,0.0,0.0,0.0,326770688.0,155414528.0,2718593024.0,30334910464.0,13420.0,326.0
0.0,0.0,100.0,0.0,0.0,0.0,326770688.0,155414528.0,2718593024.0,30334910464.0,14310.0,326.0
0.0,0.0,100.0,0.0,0.0,0.0,326770688.0,155414528.0,2718593024.0,30334910464.0,15492.0,326.0
0.0,0.0,99.600,0.400,0.0,0.0,326762496.0,155422720.0,2718593024.0,30334910464.0,15636.0,326.0
0.0,0.0,100.0,0.0,0.0,0.0,326737920.0,155422720.0,2718593024.0,30334935040.0,15288.0,392.0
0.0,0.0,100.0,0.0,0.0,0.0,326729728.0,155422720.0,2718593024.0,30334943232.0,14498.0,326.0
0.0,0.200,99.800,0.0,0.0,0.0,326983680.0,155422720.0,2718593024.0,30334689280.0,14830.0,483.0
0.0,0.0,100.0,0.0,0.0,0.0,326983680.0,155422720.0,2718593024.0,30334689280.0,12456.0,392.0
0.0,0.0,100.0,0.0,0.0,0.0,326856704.0,155422720.0,2718593024.0,30334816256.0,13494.0,326.0
0.0,0.0,99.800,0.200,0.0,0.0,326815744.0,155430912.0,2718593024.0,30334849024.0,13462.0,410.0
0.0,0.0,100.0,0.0,0.0,0.0,326815744.0,155430912.0,2718593024.0,30334849024.0,14746.0,326.0
0.0,0.0,100.0,0.0,0.0,0.0,326815744.0,155430912.0,2718593024.0,30334849024.0,16558.0,458.0
0.0,0.0,100.0,0.0,0.0,0.0,326656000.0,155430912.0,2718593024.0,30335008768.0,16872.0,326.0
0.0,0.0,100.0,0.0,0.0,0.0,326815744.0,155430912.0,2718593024.0,30334849024.0,15612.0,326.0
0.0,0.0,100.0,0.0,0.0,0.0,326815744.0,155430912.0,2718593024.0,30334849024.0,14584.0,428.0
0.0,0.0,99.800,0.200,0.0,0.0,326774784.0,155439104.0,2718593024.0,30334881792.0,14216.0,702.0
0.0,0.0,100.0,0.0,0.0,0.0,326623232.0,155439104.0,2718593024.0,30335033344.0,14042.0,326.0
0.0,0.0,100.0,0.0,0.0,0.0,326774784.0,155439104.0,2718593024.0,30334881792.0,13130.0,326.0
0.0,0.0,100.0,0.0,0.0,0.0,326742016.0,155439104.0,2718593024.0,30334914560.0,14408.0,326.0
0.0,0.0,100.0,0.0,0.0,0.0,326742016.0,155439104.0,2718593024.0,30334914560.0,13906.0,326.0
0.0,0.0,100.0,0.0,0.0,0.0,326582272.0,155439104.0,2718593024.0,30335074304.0,16058.0,326.0
0.0,0.0,99.800,0.200,0.0,0.0,326823936.0,155447296.0,2718597120.0,30334820352.0,15428.0,542.0
0.0,0.0,100.0,0.0,0.0,0.0,326823936.0,155447296.0,2718597120.0,30334820352.0,15948.0,326.0
0.0,0.0,100.0,0.0,0.0,0.0,326856704.0,155447296.0,2718597120.0,30334787584.0,13820.0,326.0
0.0,0.0,100.0,0.0,0.0,0.0,326729728.0,155447296.0,2718597120.0,30334914560.0,13980.0,326.0
0.0,0.0,100.0,0.0,0.0,0.0,326729728.0,155447296.0,2718597120.0,30334914560.0,13150.0,326.0
0.0,0.0,100.0,0.0,0.0,0.0,326729728.0,155447296.0,2718597120.0,30334914560.0,13008.0,326.0
