"Dstat 0.7.2 CSV output"
"Author:","Dag Wieers <dag@wieers.com>",,,,"URL:","http://dag.wieers.com/home-made/dstat/"
"Host:","node0.tf-assign2.uwmadison744-f19-pg0.wisc.cloudlab.us",,,,"User:","lyang296"
"Cmdline:","dstat --cpu --mem --net --output node0.csv",,,,"Date:","11 Oct 2019 12:24:52 CDT"

"total cpu usage",,,,,,"memory usage",,,,"net/total",
"usr","sys","idl","wai","hiq","siq","used","buff","cach","free","recv","send"
0.880,0.204,98.897,0.009,0.0,0.011,1203822592.0,216662016.0,2668240896.0,29446963200.0,0.0,0.0
30.400,16.0,53.600,0.0,0.0,0.0,1341837312.0,216662016.0,2668244992.0,29308944384.0,16954.0,4146.0
24.900,8.233,66.867,0.0,0.0,0.0,1492623360.0,216662016.0,2668253184.0,29158150144.0,16564.0,346.0
5.800,14.400,79.800,0.0,0.0,0.0,1913962496.0,216662016.0,2668253184.0,28736811008.0,14280.0,66.0
5.812,14.830,78.958,0.401,0.0,0.0,1877925888.0,216666112.0,2668253184.0,28772843520.0,14300.0,1518.0
10.384,13.093,76.298,0.0,0.0,0.226,2186424320.0,216666112.0,2668257280.0,28464340992.0,17162.0,1650.0
4.646,8.889,86.465,0.0,0.0,0.0,2306560000.0,216666112.0,2668257280.0,28344205312.0,17268.0,1702.0
0.201,0.201,99.598,0.0,0.0,0.0,2306686976.0,216666112.0,2668257280.0,28344078336.0,16767.0,132.0
0.200,0.200,99.400,0.0,0.0,0.200,2307321856.0,216666112.0,2668257280.0,28343443456.0,17312.0,132.0
1.006,0.201,98.793,0.0,0.0,0.0,2307768320.0,216666112.0,2668257280.0,28342996992.0,37836.0,1126698.0
0.401,0.401,99.198,0.0,0.0,0.0,2307829760.0,216670208.0,2668257280.0,28342931456.0,28568.0,10357.0
1.006,0.604,98.390,0.0,0.0,0.0,2307891200.0,216670208.0,2668257280.0,28342870016.0,19508.0,27846.0
0.0,0.0,100.0,0.0,0.0,0.0,2307923968.0,216670208.0,2668257280.0,28342837248.0,15454.0,0.0
0.200,0.401,99.399,0.0,0.0,0.0,2307923968.0,216670208.0,2668257280.0,28342837248.0,13751.0,132.0
0.200,0.401,99.399,0.0,0.0,0.0,2308083712.0,216670208.0,2668257280.0,28342677504.0,14209.0,2112.0
0.0,0.0,99.599,0.401,0.0,0.0,2308083712.0,216670208.0,2668257280.0,28342677504.0,10731.0,0.0
1.606,0.201,98.193,0.0,0.0,0.0,2308034560.0,216670208.0,2668257280.0,28342726656.0,18923.0,1108362.0
1.406,0.402,98.193,0.0,0.0,0.0,2308710400.0,216670208.0,2668257280.0,28342050816.0,20398.0,1107674.0
0.0,0.0,100.0,0.0,0.0,0.0,2308648960.0,216670208.0,2668257280.0,28342112256.0,21319.0,16936.0
0.802,0.802,98.196,0.0,0.0,0.200,2309513216.0,216670208.0,2668257280.0,28341248000.0,19947.0,40312.0
0.200,0.200,99.399,0.200,0.0,0.0,2309738496.0,216674304.0,2668257280.0,28341018624.0,16807.0,408.0
0.200,0.0,99.800,0.0,0.0,0.0,2309902336.0,216674304.0,2668257280.0,28340854784.0,14916.0,412.0
0.200,0.200,99.599,0.0,0.0,0.0,2310066176.0,216674304.0,2668257280.0,28340690944.0,15592.0,1382.0
0.200,0.200,99.599,0.0,0.0,0.0,2310356992.0,216674304.0,2668257280.0,28340400128.0,15094.0,132.0
0.0,0.0,100.0,0.0,0.0,0.0,2310422528.0,216674304.0,2668257280.0,28340334592.0,21462.0,17508.0
1.008,0.403,98.589,0.0,0.0,0.0,2310725632.0,216678400.0,2668257280.0,28340027392.0,19501.0,25340.0
0.601,0.401,98.998,0.0,0.0,0.0,2310725632.0,216678400.0,2668257280.0,28340027392.0,16972.0,3120.0
0.0,0.0,100.0,0.0,0.0,0.0,2310598656.0,216678400.0,2668257280.0,28340154368.0,17321.0,42.0
0.201,0.201,99.598,0.0,0.0,0.0,2310725632.0,216678400.0,2668257280.0,28340027392.0,15398.0,132.0
0.200,0.0,99.800,0.0,0.0,0.0,2310885376.0,216678400.0,2668257280.0,28339867648.0,17793.0,132.0
0.0,0.0,99.799,0.201,0.0,0.0,2311041024.0,216682496.0,2668257280.0,28339707904.0,15759.0,0.0
0.401,0.401,99.198,0.0,0.0,0.0,2310914048.0,216682496.0,2668257280.0,28339834880.0,16590.0,478.0
0.200,0.0,99.800,0.0,0.0,0.0,2310914048.0,216682496.0,2668257280.0,28339834880.0,17020.0,132.0
0.0,0.600,99.400,0.0,0.0,0.0,2310914048.0,216682496.0,2668257280.0,28339834880.0,17329.0,0.0
0.200,0.200,99.599,0.0,0.0,0.0,2310975488.0,216682496.0,2668257280.0,28339773440.0,18445.0,132.0
2.204,4.810,92.786,0.200,0.0,0.0,2315628544.0,216682496.0,2668285952.0,28335091712.0,23824.0,6627.0
2.0,2.400,95.600,0.0,0.0,0.0,2316324864.0,216682496.0,2668285952.0,28334395392.0,23258.0,4906.0
0.602,0.602,98.795,0.0,0.0,0.0,2316754944.0,216682496.0,2668285952.0,28333965312.0,20284.0,1226.0
0.0,0.0,100.0,0.0,0.0,0.0,2316750848.0,216682496.0,2668290048.0,28333965312.0,18345.0,3456.0
0.201,0.0,99.799,0.0,0.0,0.0,2316750848.0,216682496.0,2668290048.0,28333965312.0,18379.0,0.0
0.200,0.200,99.198,0.401,0.0,0.0,2316554240.0,216682496.0,2668290048.0,28334161920.0,18178.0,132.0
0.0,0.400,99.600,0.0,0.0,0.0,2316455936.0,216682496.0,2668290048.0,28334260224.0,17440.0,3538.0
0.201,0.402,99.398,0.0,0.0,0.0,2315911168.0,216682496.0,2668290048.0,28334804992.0,18790.0,704.0
0.200,0.401,99.399,0.0,0.0,0.0,2315857920.0,216682496.0,2668290048.0,28334858240.0,19360.0,132.0
0.0,0.0,100.0,0.0,0.0,0.0,2315759616.0,216682496.0,2668290048.0,28334956544.0,19367.0,520.0
11.043,10.429,78.323,0.0,0.0,0.204,1177284608.0,216682496.0,2668294144.0,29473427456.0,19372.0,3598.0
